EESchema Schematic File Version 2
LIBS:power
LIBS:device
LIBS:transistors
LIBS:conn
LIBS:linear
LIBS:regul
LIBS:74xx
LIBS:cmos4000
LIBS:adc-dac
LIBS:memory
LIBS:xilinx
LIBS:microcontrollers
LIBS:dsp
LIBS:microchip
LIBS:analog_switches
LIBS:motorola
LIBS:texas
LIBS:intel
LIBS:audio
LIBS:interface
LIBS:digital-audio
LIBS:philips
LIBS:display
LIBS:cypress
LIBS:siliconi
LIBS:opto
LIBS:atmel
LIBS:contrib
LIBS:valves
LIBS:Dispositivos_I2C
LIBS:DataStorage
LIBS:ESP8266
LIBS:TransistorParts
LIBS:arduino_shieldsNCL
LIBS:ProductionMeterShield-cache
EELAYER 25 0
EELAYER END
$Descr A3 16535 11693
encoding utf-8
Sheet 1 1
Title "Production Meter"
Date "2015-09-26"
Rev "0.0"
Comp "Black Electronics [INDIA]"
Comment1 "Send production to net via wifi"
Comment2 ""
Comment3 ""
Comment4 ""
$EndDescr
$Comp
L AP1117 U2
U 1 1 56064A6F
P 1900 900
F 0 "U2" H 2000 650 50  0000 C CNN
F 1 "1117-5" H 1900 1150 50  0000 C CNN
F 2 "TO_SOT_Packages_SMD:SOT223_Pad_2_short" H 1900 900 60  0001 C CNN
F 3 "" H 1900 900 60  0000 C CNN
	1    1900 900 
	1    0    0    -1  
$EndComp
$Comp
L AP1117 U1
U 1 1 56064AB7
P 1500 1600
F 0 "U1" H 1600 1350 50  0000 C CNN
F 1 "1117-3V3" H 1500 1850 50  0000 C CNN
F 2 "TO_SOT_Packages_SMD:SOT223_Pad_2_short" H 1500 1600 60  0001 C CNN
F 3 "" H 1500 1600 60  0000 C CNN
	1    1500 1600
	1    0    0    -1  
$EndComp
$Comp
L LED D2
U 1 1 56064C13
P 1700 2500
F 0 "D2" H 1700 2600 50  0000 C CNN
F 1 "PWR" H 1700 2400 50  0000 C CNN
F 2 "LEDs:LED-0805" H 1700 2500 60  0001 C CNN
F 3 "" H 1700 2500 60  0000 C CNN
	1    1700 2500
	-1   0    0    1   
$EndComp
$Comp
L D D1
U 1 1 56064D0A
P 1250 900
F 0 "D1" H 1250 1000 50  0000 C CNN
F 1 "D" H 1250 800 50  0000 C CNN
F 2 "Diodes_SMD:SMA_Standard" H 1250 900 60  0001 C CNN
F 3 "" H 1250 900 60  0000 C CNN
	1    1250 900 
	-1   0    0    1   
$EndComp
$Comp
L CP C8
U 1 1 5606481B
P 2350 1100
F 0 "C8" H 2375 1200 50  0000 L CNN
F 1 "10uF" H 2375 1000 50  0000 L CNN
F 2 "Capacitors_Tantalum_SMD:TantalC_SizeB_EIA-3528_Reflow" H 2388 950 30  0001 C CNN
F 3 "" H 2350 1100 60  0000 C CNN
	1    2350 1100
	1    0    0    -1  
$EndComp
$Comp
L R R4
U 1 1 5606552C
P 1300 2500
F 0 "R4" V 1380 2500 50  0000 C CNN
F 1 "10K" V 1300 2500 50  0000 C CNN
F 2 "Resistors_SMD:R_0805" V 1230 2500 30  0001 C CNN
F 3 "" H 1300 2500 30  0000 C CNN
	1    1300 2500
	0    1    1    0   
$EndComp
$Comp
L GND #PWR01
U 1 1 5606582F
P 1500 2000
F 0 "#PWR01" H 1500 1750 50  0001 C CNN
F 1 "GND" H 1500 1850 50  0000 C CNN
F 2 "" H 1500 2000 60  0000 C CNN
F 3 "" H 1500 2000 60  0000 C CNN
	1    1500 2000
	1    0    0    -1  
$EndComp
$Comp
L GND #PWR02
U 1 1 560658EB
P 1950 2500
F 0 "#PWR02" H 1950 2250 50  0001 C CNN
F 1 "GND" H 1950 2350 50  0000 C CNN
F 2 "" H 1950 2500 60  0000 C CNN
F 3 "" H 1950 2500 60  0000 C CNN
	1    1950 2500
	0    -1   -1   0   
$EndComp
$Comp
L GND #PWR03
U 1 1 560659EF
P 2300 1300
F 0 "#PWR03" H 2300 1050 50  0001 C CNN
F 1 "GND" H 2300 1150 50  0000 C CNN
F 2 "" H 2300 1300 60  0000 C CNN
F 3 "" H 2300 1300 60  0000 C CNN
	1    2300 1300
	1    0    0    -1  
$EndComp
Text Label 2400 900  0    60   ~ 0
5V
Text Label 1000 1600 0    60   ~ 0
5V
$Comp
L CP C6
U 1 1 560F76EC
P 1900 1800
F 0 "C6" H 1925 1900 50  0000 L CNN
F 1 "10uF" H 1925 1700 50  0000 L CNN
F 2 "Capacitors_Tantalum_SMD:TantalC_SizeB_EIA-3528_Reflow" H 1938 1650 30  0001 C CNN
F 3 "" H 1900 1800 60  0000 C CNN
	1    1900 1800
	1    0    0    -1  
$EndComp
$Comp
L CP C4
U 1 1 560647E1
P 1500 1100
F 0 "C4" H 1525 1200 50  0000 L CNN
F 1 "100uF" H 1525 1000 50  0000 L CNN
F 2 "Capacitors_Tantalum_SMD:TantalC_SizeB_EIA-3528_Reflow" H 1538 950 30  0001 C CNN
F 3 "" H 1500 1100 60  0000 C CNN
	1    1500 1100
	1    0    0    -1  
$EndComp
Text Label 1450 900  0    60   ~ 0
12V
$Comp
L CONN_01X02 P6
U 1 1 56103105
P 2000 6050
F 0 "P6" H 2000 6200 50  0000 C CNN
F 1 "FAN" V 2100 6050 50  0000 C CNN
F 2 "Pin_Headers:Pin_Header_Straight_1x02" H 2000 6050 60  0001 C CNN
F 3 "" H 2000 6050 60  0000 C CNN
	1    2000 6050
	-1   0    0    -1  
$EndComp
$Comp
L GND #PWR04
U 1 1 56103660
P 2450 6100
F 0 "#PWR04" H 2450 5850 50  0001 C CNN
F 1 "GND" H 2450 5950 50  0000 C CNN
F 2 "" H 2450 6100 60  0000 C CNN
F 3 "" H 2450 6100 60  0000 C CNN
	1    2450 6100
	1    0    0    -1  
$EndComp
Text Label 2450 6000 0    60   ~ 0
12V
$Comp
L GND #PWR05
U 1 1 5610172D
P 1350 5750
F 0 "#PWR05" H 1350 5500 50  0001 C CNN
F 1 "GND" H 1350 5600 50  0000 C CNN
F 2 "" H 1350 5750 60  0000 C CNN
F 3 "" H 1350 5750 60  0000 C CNN
	1    1350 5750
	1    0    0    -1  
$EndComp
Text Label 1200 6150 0    60   ~ 0
TX2_DBG
Text Label 1200 6050 0    60   ~ 0
RX2_DBG
Text Notes 700  3200 0    60   ~ 0
Power Supply\n
$Comp
L GND #PWR06
U 1 1 56101B56
P 1300 4100
F 0 "#PWR06" H 1300 3850 50  0001 C CNN
F 1 "GND" H 1300 3950 50  0000 C CNN
F 2 "" H 1300 4100 60  0000 C CNN
F 3 "" H 1300 4100 60  0000 C CNN
	1    1300 4100
	1    0    0    -1  
$EndComp
Text Label 650  3950 0    60   ~ 0
5V
$Comp
L R R1
U 1 1 56101DE3
P 850 4150
F 0 "R1" V 930 4150 50  0000 C CNN
F 1 "10K" V 850 4150 50  0000 C CNN
F 2 "Resistors_SMD:R_0805" V 780 4150 30  0001 C CNN
F 3 "" H 850 4150 30  0000 C CNN
	1    850  4150
	1    0    0    -1  
$EndComp
$Comp
L R R2
U 1 1 56101E57
P 1050 4150
F 0 "R2" V 1130 4150 50  0000 C CNN
F 1 "10K" V 1050 4150 50  0000 C CNN
F 2 "Resistors_SMD:R_0805" V 980 4150 30  0001 C CNN
F 3 "" H 1050 4150 30  0000 C CNN
	1    1050 4150
	1    0    0    -1  
$EndComp
$Comp
L DS3231N U3
U 1 1 5610291F
P 2300 4300
F 0 "U3" H 2600 4850 60  0000 C CNN
F 1 "DS3231N" H 2000 3900 60  0000 C CNN
F 2 "SMD_Packages:SO-16-W" H 2300 4300 60  0001 C CNN
F 3 "" H 2300 4300 60  0000 C CNN
	1    2300 4300
	1    0    0    -1  
$EndComp
$Comp
L GND #PWR07
U 1 1 561038C4
P 3100 5250
F 0 "#PWR07" H 3100 5000 50  0001 C CNN
F 1 "GND" H 3100 5100 50  0000 C CNN
F 2 "" H 3100 5250 60  0000 C CNN
F 3 "" H 3100 5250 60  0000 C CNN
	1    3100 5250
	1    0    0    -1  
$EndComp
Text Label 650  4350 0    60   ~ 0
SDA
Text Label 650  4500 0    60   ~ 0
SCL
Text Label 1600 3500 0    60   ~ 0
Vbat
$Comp
L CONN_01X02 P5
U 1 1 56106E1A
P 1300 3550
F 0 "P5" H 1300 3700 50  0000 C CNN
F 1 "CR2032" V 1400 3550 50  0000 C CNN
F 2 "Discret:CR2032H" H 1300 3550 60  0001 C CNN
F 3 "" H 1300 3550 60  0000 C CNN
	1    1300 3550
	-1   0    0    -1  
$EndComp
$Comp
L GND #PWR08
U 1 1 56107518
P 1550 3600
F 0 "#PWR08" H 1550 3350 50  0001 C CNN
F 1 "GND" H 1550 3450 50  0000 C CNN
F 2 "" H 1550 3600 60  0000 C CNN
F 3 "" H 1550 3600 60  0000 C CNN
	1    1550 3600
	1    0    0    -1  
$EndComp
NoConn ~ 3200 4250
NoConn ~ 3200 4100
NoConn ~ 3200 3950
Text Notes 650  5400 0    60   ~ 0
RTC
Text Label 11150 1450 0    60   ~ 0
RX1_ESP_5V
Text Label 10400 4500 0    60   ~ 0
TX1_ESP_5V
Text Label 2000 1600 0    60   ~ 0
3V3
$Comp
L PWR_FLAG #FLG09
U 1 1 561A8D10
P 2300 3500
F 0 "#FLG09" H 2300 3595 50  0001 C CNN
F 1 "PWR_FLAG" H 2300 3680 50  0000 C CNN
F 2 "" H 2300 3500 60  0000 C CNN
F 3 "" H 2300 3500 60  0000 C CNN
	1    2300 3500
	-1   0    0    1   
$EndComp
$Comp
L CONN_01X02 P1
U 1 1 5616BC0A
P 850 950
F 0 "P1" H 850 1100 50  0000 C CNN
F 1 "PWR IN" V 950 950 50  0000 C CNN
F 2 "w_conn_misc:TerminalAngled_1x02" H 850 950 60  0001 C CNN
F 3 "" H 850 950 60  0000 C CNN
	1    850  950 
	-1   0    0    1   
$EndComp
$Comp
L C C2
U 1 1 561AA456
P 1200 4800
F 0 "C2" H 1225 4900 50  0000 L CNN
F 1 "10nF" H 1225 4700 50  0000 L CNN
F 2 "Capacitors_SMD:C_0805" H 1238 4650 30  0001 C CNN
F 3 "" H 1200 4800 60  0000 C CNN
	1    1200 4800
	1    0    0    -1  
$EndComp
Text Label 11700 1550 0    60   ~ 0
TX1_ESP_3V3
$Comp
L ESP-12E U5
U 1 1 562B6140
P 10000 1750
F 0 "U5" H 10000 1650 50  0000 C CNN
F 1 "ESP-12E" H 10000 1850 50  0000 C CNN
F 2 "ESP8266:ESP-12E" H 10000 1750 50  0001 C CNN
F 3 "" H 10000 1750 50  0001 C CNN
	1    10000 1750
	1    0    0    -1  
$EndComp
$Comp
L R R5
U 1 1 562F5BE6
P 8250 1300
F 0 "R5" V 8330 1300 50  0000 C CNN
F 1 "10K" V 8250 1300 50  0000 C CNN
F 2 "Resistors_SMD:R_0805" V 8180 1300 30  0001 C CNN
F 3 "" H 8250 1300 30  0000 C CNN
	1    8250 1300
	-1   0    0    1   
$EndComp
Text Label 7950 1150 0    60   ~ 0
3V3
$Comp
L R R6
U 1 1 562F773B
P 8600 1650
F 0 "R6" V 8680 1650 50  0000 C CNN
F 1 "100" V 8600 1650 50  0000 C CNN
F 2 "Resistors_SMD:R_0805" V 8530 1650 30  0001 C CNN
F 3 "" H 8600 1650 30  0000 C CNN
	1    8600 1650
	0    -1   -1   0   
$EndComp
NoConn ~ 9100 1550
NoConn ~ 9100 1750
NoConn ~ 9100 1850
NoConn ~ 9100 1950
NoConn ~ 9100 2050
NoConn ~ 9750 2650
NoConn ~ 9850 2650
NoConn ~ 9950 2650
NoConn ~ 10050 2650
NoConn ~ 10150 2650
NoConn ~ 10250 2650
NoConn ~ 10900 1750
NoConn ~ 10900 1650
$Comp
L GND #PWR010
U 1 1 562FD365
P 11350 2200
F 0 "#PWR010" H 11350 1950 50  0001 C CNN
F 1 "GND" H 11350 2050 50  0000 C CNN
F 2 "" H 11350 2200 60  0000 C CNN
F 3 "" H 11350 2200 60  0000 C CNN
	1    11350 2200
	1    0    0    -1  
$EndComp
Text Notes 650  6650 0    60   ~ 0
Misc. Headers
Text Notes 7850 2800 0    60   ~ 0
ESP-12
$Comp
L GND #PWR011
U 1 1 5628B185
P 9350 5550
F 0 "#PWR011" H 9350 5300 50  0001 C CNN
F 1 "GND" H 9350 5400 50  0000 C CNN
F 2 "" H 9350 5550 60  0000 C CNN
F 3 "" H 9350 5550 60  0000 C CNN
	1    9350 5550
	0    1    1    0   
$EndComp
Text Notes 11850 3850 0    118  ~ 0
TODO: \n
NoConn ~ 1750 3650
$Comp
L SW_PUSH SW1
U 1 1 568BF546
P 8800 1200
F 0 "SW1" H 8800 1200 50  0000 C CNN
F 1 "~R" H 8800 1350 50  0000 C CNN
F 2 "IHE:SW_M6_PTH" H 8800 1200 60  0001 C CNN
F 3 "" H 8800 1200 60  0000 C CNN
	1    8800 1200
	1    0    0    -1  
$EndComp
$Comp
L SW_PUSH SW2
U 1 1 568BFB35
P 11600 1850
F 0 "SW2" H 11600 1850 50  0000 C CNN
F 1 "FU" H 11600 2000 50  0000 C CNN
F 2 "IHE:SW_M6_PTH" H 11600 1850 60  0001 C CNN
F 3 "" H 11600 1850 60  0000 C CNN
	1    11600 1850
	1    0    0    -1  
$EndComp
$Comp
L GND #PWR012
U 1 1 568C0383
P 9250 1200
F 0 "#PWR012" H 9250 950 50  0001 C CNN
F 1 "GND" H 9250 1050 50  0000 C CNN
F 2 "" H 9250 1200 60  0000 C CNN
F 3 "" H 9250 1200 60  0000 C CNN
	1    9250 1200
	1    0    0    -1  
$EndComp
$Comp
L CONN_01X02 P4
U 1 1 568D73FF
P 950 7350
F 0 "P4" H 950 7500 50  0000 C CNN
F 1 "SW" V 1050 7350 50  0000 C CNN
F 2 "Pin_Headers:Pin_Header_Straight_1x02" H 950 7350 60  0001 C CNN
F 3 "" H 950 7350 60  0000 C CNN
	1    950  7350
	-1   0    0    -1  
$EndComp
$Comp
L R R3
U 1 1 568DA2FF
P 1650 7300
F 0 "R3" V 1730 7300 50  0000 C CNN
F 1 "10K" V 1650 7300 50  0000 C CNN
F 2 "Resistors_SMD:R_0805" V 1580 7300 30  0001 C CNN
F 3 "" H 1650 7300 30  0000 C CNN
	1    1650 7300
	0    1    1    0   
$EndComp
$Comp
L GND #PWR013
U 1 1 568DAA93
P 1250 7450
F 0 "#PWR013" H 1250 7200 50  0001 C CNN
F 1 "GND" H 1250 7300 50  0000 C CNN
F 2 "" H 1250 7450 60  0000 C CNN
F 3 "" H 1250 7450 60  0000 C CNN
	1    1250 7450
	1    0    0    -1  
$EndComp
Text Label 1400 7200 0    60   ~ 0
OPEN_DETECT
$Comp
L LCD-016N002L DS1
U 1 1 569E0B05
P 10250 6300
F 0 "DS1" H 9450 6700 40  0000 C CNN
F 1 "LCD-016N002L" H 10950 6700 40  0000 C CNN
F 2 "Pin_Headers:Pin_Header_Straight_1x16" H 10250 6250 35  0000 C CIN
F 3 "" H 10250 6300 60  0000 C CNN
	1    10250 6300
	0    1    1    0   
$EndComp
$Comp
L CONN_01X03 P7
U 1 1 569E2B07
P 2550 8800
F 0 "P7" H 2550 9000 50  0000 C CNN
F 1 "Proxy" V 2650 8800 50  0000 C CNN
F 2 "w_conn_misc:TerminalAngle_1x03" H 2550 8800 60  0001 C CNN
F 3 "" H 2550 8800 60  0000 C CNN
	1    2550 8800
	-1   0    0    1   
$EndComp
$Comp
L GND #PWR014
U 1 1 569EC117
P 3500 7750
F 0 "#PWR014" H 3500 7500 50  0001 C CNN
F 1 "GND" H 3500 7600 50  0000 C CNN
F 2 "" H 3500 7750 60  0000 C CNN
F 3 "" H 3500 7750 60  0000 C CNN
	1    3500 7750
	1    0    0    -1  
$EndComp
Text Label 2500 7300 0    60   ~ 0
TEMPERATURE
Text Label 3250 6950 0    60   ~ 0
5V
$Comp
L R R7
U 1 1 569FA4A4
P 9550 7050
F 0 "R7" V 9630 7050 50  0000 C CNN
F 1 "100" V 9550 7050 50  0000 C CNN
F 2 "Resistors_SMD:R_0805" V 9480 7050 30  0001 C CNN
F 3 "" H 9550 7050 30  0000 C CNN
	1    9550 7050
	0    1    1    0   
$EndComp
Text Label 9150 6950 0    60   ~ 0
5V
Text Label 9250 6550 0    60   ~ 0
D4
Text Label 9250 6650 0    60   ~ 0
D5
Text Label 9250 6750 0    60   ~ 0
D6
Text Label 9250 6850 0    60   ~ 0
D7
Text Label 9350 5650 0    60   ~ 0
5V
Text Label 9400 5850 0    60   ~ 0
RS
Text Label 9400 6050 0    60   ~ 0
E
$Comp
L GND #PWR015
U 1 1 569FBDED
P 9300 5950
F 0 "#PWR015" H 9300 5700 50  0001 C CNN
F 1 "GND" H 9300 5800 50  0000 C CNN
F 2 "" H 9300 5950 60  0000 C CNN
F 3 "" H 9300 5950 60  0000 C CNN
	1    9300 5950
	0    1    1    0   
$EndComp
$Comp
L GND #PWR016
U 1 1 569FBE91
P 9300 7100
F 0 "#PWR016" H 9300 6850 50  0001 C CNN
F 1 "GND" H 9300 6950 50  0000 C CNN
F 2 "" H 9300 7100 60  0000 C CNN
F 3 "" H 9300 7100 60  0000 C CNN
	1    9300 7100
	1    0    0    -1  
$EndComp
$Comp
L GND #PWR017
U 1 1 569FC85F
P 9250 6450
F 0 "#PWR017" H 9250 6200 50  0001 C CNN
F 1 "GND" H 9250 6300 50  0000 C CNN
F 2 "" H 9250 6450 60  0000 C CNN
F 3 "" H 9250 6450 60  0000 C CNN
	1    9250 6450
	0    1    1    0   
$EndComp
$Comp
L POT RV1
U 1 1 569FCC35
P 8850 5750
F 0 "RV1" H 8850 5650 50  0000 C CNN
F 1 "10K" H 8850 5750 50  0000 C CNN
F 2 "Potentiometers:Potentiometer_Bourns_3296W_3-8Zoll_Inline_ScrewUp" H 8850 5750 60  0001 C CNN
F 3 "" H 8850 5750 60  0000 C CNN
	1    8850 5750
	0    1    1    0   
$EndComp
$Comp
L GND #PWR018
U 1 1 569FD0D5
P 8850 6050
F 0 "#PWR018" H 8850 5800 50  0001 C CNN
F 1 "GND" H 8850 5900 50  0000 C CNN
F 2 "" H 8850 6050 60  0000 C CNN
F 3 "" H 8850 6050 60  0000 C CNN
	1    8850 6050
	1    0    0    -1  
$EndComp
Text Label 8650 5500 0    60   ~ 0
5V
Text Label 2050 7300 0    60   ~ 0
5V
Text Notes 900  9200 0    60   ~ 0
Cloth IR sensor
Text Notes 2400 9550 0    60   ~ 0
Proxy Counter
$Comp
L MicroSD J1
U 1 1 56ACFA85
P 8400 3900
F 0 "J1" H 8200 4600 60  0000 C CNN
F 1 "MicroSD" H 8200 3200 60  0000 C CNN
F 2 "Conn_uSDcard:Conn_uSDcard" H 8500 4050 60  0001 C CNN
F 3 "" H 8500 4050 60  0000 C CNN
	1    8400 3900
	1    0    0    1   
$EndComp
Text Label 3700 1800 0    60   ~ 0
12V
Text Label 6450 2300 0    60   ~ 0
COUNTER_PULSE
Text Label 9150 4400 0    60   ~ 0
CS
Text Label 8700 3800 0    60   ~ 0
CD
Text Label 8700 3900 0    60   ~ 0
DO
Text Label 9100 4000 0    60   ~ 0
SCK
Text Label 9150 4200 0    60   ~ 0
DI
$Comp
L GND #PWR019
U 1 1 56ADE537
P 3000 9300
F 0 "#PWR019" H 3000 9050 50  0001 C CNN
F 1 "GND" H 3000 9150 50  0000 C CNN
F 2 "" H 3000 9300 60  0000 C CNN
F 3 "" H 3000 9300 60  0000 C CNN
	1    3000 9300
	1    0    0    -1  
$EndComp
Text Label 2850 8700 0    60   ~ 0
12V
Text Label 3150 8650 0    60   ~ 0
COUNTER_PULSE
$Comp
L CONN_01X03 P3
U 1 1 56AE04AC
P 1000 8750
F 0 "P3" H 1000 8950 50  0000 C CNN
F 1 "ClothSensor" V 1100 8750 50  0000 C CNN
F 2 "w_conn_misc:TerminalAngle_1x03" H 1000 8750 60  0001 C CNN
F 3 "" H 1000 8750 60  0000 C CNN
	1    1000 8750
	-1   0    0    1   
$EndComp
$Comp
L GND #PWR020
U 1 1 56AE1246
P 1400 8850
F 0 "#PWR020" H 1400 8600 50  0001 C CNN
F 1 "GND" H 1400 8700 50  0000 C CNN
F 2 "" H 1400 8850 60  0000 C CNN
F 3 "" H 1400 8850 60  0000 C CNN
	1    1400 8850
	1    0    0    -1  
$EndComp
Text Label 1400 8650 0    60   ~ 0
5V
Text Label 1400 8750 0    60   ~ 0
CLOTH_PRESENT
Text Label 3700 2000 0    60   ~ 0
TEMPERATURE
Text Label 3700 2100 0    60   ~ 0
CLOTH_PRESENT
Text Label 6450 2200 0    60   ~ 0
OPEN_DETECT
Text Label 6800 3300 0    60   ~ 0
SDA
Text Label 6800 3400 0    60   ~ 0
SCL
NoConn ~ 4400 1400
NoConn ~ 4400 1500
Text Label 6800 2900 0    60   ~ 0
RX2_DBG
Text Label 6800 3000 0    60   ~ 0
TX2_DBG
Text Label 6800 3200 0    60   ~ 0
RX1_ESP_5V
Text Label 6800 3100 0    60   ~ 0
TX1_ESP_5V
Text Label 3900 4100 0    60   ~ 0
CS
Text Label 3900 4200 0    60   ~ 0
SCK
Text Label 3900 4300 0    60   ~ 0
DI
Text Label 3900 4400 0    60   ~ 0
DO
Text Label 3900 4550 0    60   ~ 0
CD
Text Label 6600 1200 0    60   ~ 0
RS
Text Label 6600 1300 0    60   ~ 0
E
Text Label 6600 1400 0    60   ~ 0
D4
Text Label 6600 1500 0    60   ~ 0
D5
Text Label 6600 1600 0    60   ~ 0
D6
Text Label 6600 1800 0    60   ~ 0
D7
$Comp
L CONN_01X03 P2
U 1 1 56B24B48
P 850 6050
F 0 "P2" H 850 6250 50  0000 C CNN
F 1 "Debug" V 950 6050 50  0000 C CNN
F 2 "Pin_Headers:Pin_Header_Straight_1x03" H 850 6050 60  0001 C CNN
F 3 "" H 850 6050 60  0000 C CNN
	1    850  6050
	-1   0    0    -1  
$EndComp
$Comp
L BC237 Q1
U 1 1 56B2CC63
P 3400 7300
F 0 "Q1" H 3600 7375 50  0000 L CNN
F 1 "BC237" H 3600 7300 50  0000 L CNN
F 2 "Housings_TO-92:TO-92_Inline_Narrow_Oval" H 3600 7225 50  0000 L CIN
F 3 "" H 3400 7300 50  0000 L CNN
	1    3400 7300
	1    0    0    -1  
$EndComp
NoConn ~ 4400 4650
NoConn ~ 4400 4750
NoConn ~ 4400 4850
NoConn ~ 4400 4950
NoConn ~ 4400 5050
NoConn ~ 4400 5150
NoConn ~ 4400 5250
NoConn ~ 4400 5400
NoConn ~ 4400 5500
NoConn ~ 4400 5600
NoConn ~ 4400 5700
NoConn ~ 6300 5450
NoConn ~ 6300 5350
NoConn ~ 6300 5250
NoConn ~ 6300 5150
NoConn ~ 6300 5050
NoConn ~ 6300 4950
NoConn ~ 6300 4850
NoConn ~ 6300 4750
NoConn ~ 6300 4600
NoConn ~ 6300 4500
NoConn ~ 6300 4400
NoConn ~ 6300 4300
NoConn ~ 6300 4200
NoConn ~ 6300 4100
NoConn ~ 6300 4000
NoConn ~ 6300 3900
NoConn ~ 6300 3750
NoConn ~ 6300 3650
NoConn ~ 6300 2800
NoConn ~ 6300 2700
NoConn ~ 6300 2400
$Comp
L ARDUINO_MEGA_SHIELD SHIELD1
U 1 1 56AC3F6D
P 5400 3250
F 0 "SHIELD1" H 5000 5750 60  0000 C CNN
F 1 "ARDUINO_MEGA_SHIELD" H 5300 550 60  0000 C CNN
F 2 "w_conn_misc:arduino_mega_header_IMS" H 5400 3250 60  0001 C CNN
F 3 "" H 5400 3250 60  0000 C CNN
	1    5400 3250
	1    0    0    -1  
$EndComp
NoConn ~ 6300 2500
NoConn ~ 6300 2100
NoConn ~ 6300 2000
NoConn ~ 6300 1900
NoConn ~ 6300 1100
NoConn ~ 6300 900 
NoConn ~ 4400 2300
NoConn ~ 4400 2400
NoConn ~ 4400 2500
NoConn ~ 4400 2600
NoConn ~ 4400 2700
NoConn ~ 4400 2900
NoConn ~ 4400 3000
NoConn ~ 4400 3100
NoConn ~ 4400 3200
NoConn ~ 4400 3300
NoConn ~ 4400 3400
NoConn ~ 4400 3500
NoConn ~ 4400 3600
NoConn ~ 4400 2200
$Comp
L PWR_FLAG #FLG021
U 1 1 56AF2166
P 2250 5900
F 0 "#FLG021" H 2250 5995 50  0001 C CNN
F 1 "PWR_FLAG" H 2250 6080 50  0000 C CNN
F 2 "" H 2250 5900 60  0000 C CNN
F 3 "" H 2250 5900 60  0000 C CNN
	1    2250 5900
	1    0    0    -1  
$EndComp
$Comp
L PWR_FLAG #FLG022
U 1 1 56AF773D
P 2250 6300
F 0 "#FLG022" H 2250 6395 50  0001 C CNN
F 1 "PWR_FLAG" H 2250 6480 50  0000 C CNN
F 2 "" H 2250 6300 60  0000 C CNN
F 3 "" H 2250 6300 60  0000 C CNN
	1    2250 6300
	-1   0    0    1   
$EndComp
$Comp
L 4050_IC U6
U 1 1 56AEF7DB
P 4200 8900
F 0 "U6" H 4200 8450 60  0000 C CNN
F 1 "4050_IC" H 4200 9350 60  0000 C CNN
F 2 "SOIC_Packages:SOIC-16_3.9x9.9mm_Pitch1.27mm" H 4250 8800 60  0001 C CNN
F 3 "" H 4250 8800 60  0000 C CNN
	1    4200 8900
	1    0    0    -1  
$EndComp
Text Label 3500 8550 0    60   ~ 0
5V
NoConn ~ 3700 8850
NoConn ~ 3700 8950
NoConn ~ 3700 9050
NoConn ~ 3700 9150
NoConn ~ 4700 9250
NoConn ~ 4700 9150
NoConn ~ 4700 9050
NoConn ~ 4700 8950
NoConn ~ 4700 8750
NoConn ~ 4700 8650
$Comp
L GND #PWR023
U 1 1 56AFB196
P 3450 1650
F 0 "#PWR023" H 3450 1400 50  0001 C CNN
F 1 "GND" H 3450 1500 50  0000 C CNN
F 2 "" H 3450 1650 60  0000 C CNN
F 3 "" H 3450 1650 60  0000 C CNN
	1    3450 1650
	1    0    0    -1  
$EndComp
$Comp
L SW_PUSH SW3
U 1 1 56B05D1F
P 4000 1300
F 0 "SW3" H 4000 1300 50  0000 C CNN
F 1 "~R" H 4000 1450 50  0000 C CNN
F 2 "IHE:SW_M6_PTH" H 4000 1300 60  0001 C CNN
F 3 "" H 4000 1300 60  0000 C CNN
	1    4000 1300
	1    0    0    -1  
$EndComp
$Comp
L CONN_01X02 P8
U 1 1 56B10F40
P 11300 1050
F 0 "P8" H 11300 1200 50  0000 C CNN
F 1 "DBG" V 11400 1050 50  0000 C CNN
F 2 "Pin_Headers:Pin_Header_Straight_1x02" H 11300 1050 60  0001 C CNN
F 3 "" H 11300 1050 60  0000 C CNN
	1    11300 1050
	1    0    0    1   
$EndComp
$Comp
L GND #PWR024
U 1 1 56B1C020
P 3900 3900
F 0 "#PWR024" H 3900 3650 50  0001 C CNN
F 1 "GND" H 3900 3750 50  0000 C CNN
F 2 "" H 3900 3900 60  0000 C CNN
F 3 "" H 3900 3900 60  0000 C CNN
	1    3900 3900
	0    1    1    0   
$EndComp
$Comp
L GND #PWR025
U 1 1 56B1C09D
P 6450 1000
F 0 "#PWR025" H 6450 750 50  0001 C CNN
F 1 "GND" H 6450 850 50  0000 C CNN
F 2 "" H 6450 1000 60  0000 C CNN
F 3 "" H 6450 1000 60  0000 C CNN
	1    6450 1000
	0    -1   -1   0   
$EndComp
$Comp
L 4050_IC U4
U 1 1 56B0583B
P 9800 4150
F 0 "U4" H 9800 3700 60  0000 C CNN
F 1 "4050_IC" H 9800 4600 60  0000 C CNN
F 2 "SOIC_Packages:SOIC-16_3.9x9.9mm_Pitch1.27mm" H 9850 4050 60  0001 C CNN
F 3 "" H 9850 4050 60  0000 C CNN
	1    9800 4150
	1    0    0    -1  
$EndComp
$Comp
L GND #PWR026
U 1 1 56B06554
P 8800 3050
F 0 "#PWR026" H 8800 2800 50  0001 C CNN
F 1 "GND" H 8800 2900 50  0000 C CNN
F 2 "" H 8800 3050 60  0000 C CNN
F 3 "" H 8800 3050 60  0000 C CNN
	1    8800 3050
	1    0    0    -1  
$EndComp
$Comp
L GND #PWR027
U 1 1 56B07F98
P 9300 4650
F 0 "#PWR027" H 9300 4400 50  0001 C CNN
F 1 "GND" H 9300 4500 50  0000 C CNN
F 2 "" H 9300 4650 60  0000 C CNN
F 3 "" H 9300 4650 60  0000 C CNN
	1    9300 4650
	1    0    0    -1  
$EndComp
$Comp
L GND #PWR028
U 1 1 56B0811A
P 8700 4000
F 0 "#PWR028" H 8700 3750 50  0001 C CNN
F 1 "GND" H 8700 3850 50  0000 C CNN
F 2 "" H 8700 4000 60  0000 C CNN
F 3 "" H 8700 4000 60  0000 C CNN
	1    8700 4000
	0    -1   -1   0   
$EndComp
Text Label 9150 3650 0    60   ~ 0
3V3
Text Label 10400 4400 0    60   ~ 0
TX1_ESP_3V3
NoConn ~ 10300 3900
NoConn ~ 10300 4000
NoConn ~ 10300 4200
NoConn ~ 10300 4300
$Comp
L R R8
U 1 1 56B11C05
P 11100 1950
F 0 "R8" V 11180 1950 50  0000 C CNN
F 1 "100" V 11100 1950 50  0000 C CNN
F 2 "Resistors_SMD:R_0805" V 11030 1950 30  0001 C CNN
F 3 "" H 11100 1950 30  0000 C CNN
	1    11100 1950
	0    -1   -1   0   
$EndComp
Text Label 11400 2000 0    60   ~ 0
3V3
Wire Wire Line
	1050 900  1100 900 
Wire Wire Line
	1400 900  1600 900 
Wire Wire Line
	1900 1250 1900 1200
Wire Wire Line
	2200 900  2400 900 
Wire Wire Line
	2350 900  2350 950 
Wire Wire Line
	1200 1600 1000 1600
Wire Wire Line
	1800 1600 2000 1600
Wire Wire Line
	1500 1900 1500 2000
Wire Wire Line
	1050 1250 2350 1250
Connection ~ 1900 1250
Wire Wire Line
	2300 1300 2300 1250
Connection ~ 2300 1250
Wire Wire Line
	1900 1600 1900 1650
Connection ~ 1900 1600
Wire Wire Line
	1500 1950 1900 1950
Connection ~ 1500 1950
Wire Wire Line
	1500 950  1500 900 
Connection ~ 1500 900 
Wire Wire Line
	2200 6000 2450 6000
Wire Wire Line
	1050 5950 1200 5950
Wire Wire Line
	1200 6050 1050 6050
Wire Wire Line
	1200 6150 1050 6150
Wire Notes Line
	650  600  650  3250
Wire Notes Line
	650  3250 2650 3250
Wire Notes Line
	2650 600  650  600 
Wire Wire Line
	650  3950 1400 3950
Wire Wire Line
	650  4350 1400 4350
Wire Wire Line
	650  4500 1400 4500
Wire Wire Line
	850  4000 850  3950
Connection ~ 850  3950
Wire Wire Line
	1050 4000 1050 3950
Connection ~ 1050 3950
Wire Wire Line
	850  4300 850  4350
Connection ~ 850  4350
Wire Wire Line
	1050 4300 1050 4500
Connection ~ 1050 4500
Wire Wire Line
	2500 5150 2500 5250
Wire Wire Line
	3300 5250 1200 5250
Wire Wire Line
	2700 5250 2700 5150
Wire Wire Line
	2600 5150 2600 5250
Connection ~ 2600 5250
Wire Wire Line
	3200 4350 3300 4350
Wire Wire Line
	3300 4350 3300 5250
Wire Wire Line
	3300 4450 3200 4450
Connection ~ 2700 5250
Connection ~ 3300 4450
Wire Wire Line
	3200 4550 3300 4550
Connection ~ 3300 4550
Wire Wire Line
	3200 4650 3300 4650
Connection ~ 3300 4650
Wire Wire Line
	3200 4750 3300 4750
Connection ~ 3300 4750
Wire Wire Line
	1500 3500 2050 3500
Wire Wire Line
	1400 4100 1300 4100
Wire Wire Line
	1500 3600 1550 3600
Wire Notes Line
	600  3350 600  5450
Wire Notes Line
	600  5450 3350 5450
Wire Notes Line
	3350 5450 3350 3350
Wire Notes Line
	3350 3350 600  3350
Wire Notes Line
	2650 3250 2650 600 
Wire Wire Line
	2300 3500 2300 3450
Wire Wire Line
	2300 3450 1950 3450
Wire Wire Line
	1950 3450 1950 3500
Connection ~ 1950 3500
Connection ~ 1500 1250
Wire Wire Line
	1200 4650 1200 3950
Connection ~ 1200 3950
Wire Wire Line
	1200 5250 1200 4950
Connection ~ 2500 5250
Wire Wire Line
	1050 1250 1050 1000
Wire Wire Line
	1900 2500 1950 2500
Wire Wire Line
	1450 2500 1500 2500
Wire Wire Line
	8250 1450 9100 1450
Wire Wire Line
	7950 1150 8250 1150
Wire Wire Line
	8100 2150 9100 2150
Wire Wire Line
	8100 1150 8100 2150
Connection ~ 8100 1150
Wire Wire Line
	8750 1650 9100 1650
Wire Wire Line
	8450 1650 8100 1650
Connection ~ 8100 1650
Wire Wire Line
	10900 1450 11150 1450
Wire Wire Line
	10900 1550 11700 1550
Wire Notes Line
	600  5650 2800 5650
Wire Notes Line
	2800 5650 2800 6700
Wire Notes Line
	2800 6700 600  6700
Wire Notes Line
	600  6700 600  5650
Wire Notes Line
	7800 900  12400 900 
Wire Notes Line
	12400 900  12400 2850
Wire Notes Line
	12400 2850 7800 2850
Wire Notes Line
	7800 2850 7800 900 
Wire Wire Line
	9100 1200 9250 1200
Wire Wire Line
	8500 1200 8500 1450
Connection ~ 8500 1450
Wire Wire Line
	10900 1850 11300 1850
Wire Wire Line
	10900 2150 11900 2150
Wire Wire Line
	11350 2150 11350 2200
Wire Wire Line
	10900 2050 11150 2050
Wire Wire Line
	11150 2050 11150 2150
Connection ~ 11150 2150
Wire Wire Line
	11900 2150 11900 1850
Connection ~ 11350 2150
Wire Wire Line
	1150 7300 1500 7300
Wire Wire Line
	1150 7400 1250 7400
Wire Wire Line
	1250 7400 1250 7450
Wire Wire Line
	1800 7300 2050 7300
Connection ~ 3100 5250
Wire Wire Line
	3500 7500 3500 7750
Wire Wire Line
	3200 7300 2500 7300
Wire Wire Line
	3500 7100 3500 6950
Wire Wire Line
	3500 6950 3250 6950
Wire Wire Line
	9750 5550 9350 5550
Wire Wire Line
	9750 5650 9350 5650
Wire Wire Line
	9000 5750 9750 5750
Wire Wire Line
	9750 6150 9600 6150
Wire Wire Line
	9600 6150 9600 6450
Wire Wire Line
	9250 6450 9750 6450
Wire Wire Line
	9750 6250 9600 6250
Connection ~ 9600 6250
Wire Wire Line
	9750 6350 9600 6350
Connection ~ 9600 6350
Connection ~ 9600 6450
Wire Wire Line
	9750 6550 9250 6550
Wire Wire Line
	9250 6650 9750 6650
Wire Wire Line
	9250 6750 9750 6750
Wire Wire Line
	9250 6850 9750 6850
Wire Wire Line
	9150 6950 9750 6950
Wire Wire Line
	9400 6050 9750 6050
Wire Wire Line
	9750 5850 9400 5850
Wire Wire Line
	9750 5950 9300 5950
Wire Wire Line
	8850 6000 8850 6050
Wire Wire Line
	8850 5500 8650 5500
Wire Wire Line
	1400 7200 1300 7200
Wire Wire Line
	1300 7200 1300 7300
Connection ~ 1300 7300
Wire Notes Line
	2350 8350 2350 9600
Wire Notes Line
	2350 9600 4900 9600
Wire Notes Line
	4900 9600 4900 8350
Wire Notes Line
	4900 8350 2350 8350
Wire Wire Line
	4400 1800 3700 1800
Wire Wire Line
	4400 1600 4400 1700
Wire Wire Line
	3450 1650 4400 1650
Connection ~ 4400 1650
Wire Wire Line
	6450 2300 6300 2300
Wire Wire Line
	2750 8700 2850 8700
Wire Wire Line
	1200 8650 1400 8650
Wire Wire Line
	1200 8750 1400 8750
Wire Wire Line
	1200 8850 1400 8850
Wire Notes Line
	700  8350 700  9250
Wire Notes Line
	700  9250 2150 9250
Wire Notes Line
	2150 9250 2150 8350
Wire Notes Line
	2150 8350 700  8350
Wire Notes Line
	8300 5200 11050 5200
Wire Notes Line
	11050 5200 11050 7400
Wire Notes Line
	11050 7400 8300 7400
Wire Notes Line
	8300 7400 8300 5200
Wire Notes Line
	7950 3000 7950 5100
Wire Notes Line
	7950 5100 11050 5100
Wire Notes Line
	11050 5100 11050 3000
Wire Notes Line
	11050 3000 7950 3000
Wire Wire Line
	4400 2000 3700 2000
Wire Wire Line
	4400 2100 3700 2100
Wire Wire Line
	6300 3300 6800 3300
Wire Wire Line
	6300 3400 6800 3400
Wire Wire Line
	6300 3000 6800 3000
Wire Wire Line
	6300 2900 6800 2900
Wire Wire Line
	6300 3100 6800 3100
Wire Wire Line
	6300 3200 6800 3200
Wire Wire Line
	3900 4100 4400 4100
Wire Wire Line
	3900 4200 4400 4200
Wire Wire Line
	4400 4300 3900 4300
Wire Wire Line
	3900 4400 4400 4400
Wire Wire Line
	3900 4550 4400 4550
Wire Wire Line
	6300 1200 6600 1200
Wire Wire Line
	6300 1300 6600 1300
Wire Wire Line
	6300 1400 6600 1400
Wire Wire Line
	6300 1500 6600 1500
Wire Wire Line
	6300 1600 6600 1600
Wire Wire Line
	6300 1800 6600 1800
Wire Notes Line
	600  6800 4200 6800
Wire Notes Line
	4200 6800 4200 8100
Wire Notes Line
	4200 8100 600  8100
Wire Notes Line
	600  8100 600  6800
Connection ~ 2350 900 
Wire Wire Line
	2200 6100 2450 6100
Wire Wire Line
	6450 2200 6300 2200
Wire Wire Line
	2250 5900 2250 6000
Connection ~ 2250 6000
Wire Wire Line
	2250 6300 2250 6100
Connection ~ 2250 6100
Wire Wire Line
	2750 8900 2750 9250
Wire Wire Line
	2750 9250 3700 9250
Wire Wire Line
	3000 9300 3000 9250
Connection ~ 3000 9250
Wire Wire Line
	3700 8550 3500 8550
Wire Wire Line
	2750 8800 3600 8800
Wire Wire Line
	3600 8800 3600 8750
Wire Wire Line
	3600 8750 3700 8750
Wire Wire Line
	3700 8650 3150 8650
Wire Wire Line
	4300 1300 4400 1300
Wire Wire Line
	3700 1300 3700 1650
Connection ~ 3700 1650
Wire Wire Line
	11100 1100 11050 1100
Wire Wire Line
	11050 1100 11050 1450
Connection ~ 11050 1450
Wire Wire Line
	10950 1550 10950 1000
Wire Wire Line
	10950 1000 11100 1000
Connection ~ 10950 1550
Wire Wire Line
	1150 2500 1000 2500
Wire Wire Line
	4350 3950 4400 3950
Wire Wire Line
	4350 3850 4350 3950
Wire Wire Line
	4350 3850 4400 3850
Wire Wire Line
	4350 3900 3900 3900
Connection ~ 4350 3900
Wire Wire Line
	6450 1000 6300 1000
Wire Wire Line
	8600 3300 8650 3300
Wire Wire Line
	8650 3050 8650 3600
Wire Wire Line
	8650 3600 8600 3600
Wire Wire Line
	8600 3500 8650 3500
Connection ~ 8650 3500
Wire Wire Line
	8600 3400 8650 3400
Connection ~ 8650 3400
Wire Wire Line
	8650 3050 8800 3050
Connection ~ 8650 3300
Wire Wire Line
	8600 3900 8700 3900
Wire Wire Line
	8700 3800 8600 3800
Wire Wire Line
	9300 4650 9300 4500
Wire Wire Line
	8700 4000 8600 4000
Wire Wire Line
	9150 4400 9300 4400
Wire Wire Line
	8600 4400 9100 4400
Wire Wire Line
	9100 4400 9100 4300
Wire Wire Line
	9100 4300 9300 4300
Wire Wire Line
	9150 4200 9300 4200
Wire Wire Line
	9300 4100 9050 4100
Wire Wire Line
	9050 4100 9050 4300
Wire Wire Line
	9050 4300 8600 4300
Wire Wire Line
	9100 4000 9300 4000
Wire Wire Line
	9300 3900 9000 3900
Wire Wire Line
	9000 3900 9000 4100
Wire Wire Line
	9000 4100 8600 4100
Wire Wire Line
	9300 3800 9300 3650
Wire Wire Line
	9300 3650 9150 3650
Wire Wire Line
	10400 4400 10300 4400
Wire Wire Line
	10300 4500 10400 4500
Wire Wire Line
	10950 1950 10900 1950
Wire Wire Line
	11400 2000 11250 2000
Wire Wire Line
	11250 2000 11250 1950
Wire Wire Line
	8600 4200 8800 4200
Text Label 8800 4200 0    60   ~ 0
3V3
Text Label 1000 2500 0    60   ~ 0
3V3
NoConn ~ 8600 4500
Wire Wire Line
	1200 5950 1200 5750
Wire Wire Line
	1200 5750 1350 5750
Wire Wire Line
	9750 7050 9700 7050
Wire Wire Line
	9400 7050 9300 7050
Wire Wire Line
	9300 7050 9300 7100
$EndSCHEMATC
