EESchema Schematic File Version 2
LIBS:power
LIBS:device
LIBS:transistors
LIBS:conn
LIBS:linear
LIBS:regul
LIBS:74xx
LIBS:cmos4000
LIBS:adc-dac
LIBS:memory
LIBS:xilinx
LIBS:microcontrollers
LIBS:dsp
LIBS:microchip
LIBS:analog_switches
LIBS:motorola
LIBS:texas
LIBS:intel
LIBS:audio
LIBS:interface
LIBS:digital-audio
LIBS:philips
LIBS:display
LIBS:cypress
LIBS:siliconi
LIBS:opto
LIBS:atmel
LIBS:contrib
LIBS:valves
LIBS:Dispositivos_I2C
LIBS:DataStorage
LIBS:ESP8266
LIBS:TransistorParts
LIBS:arduino_shieldsNCL
LIBS:ProductionMeterShield8in1-cache
EELAYER 25 0
EELAYER END
$Descr A3 16535 11693
encoding utf-8
Sheet 1 1
Title "Production Meter"
Date "2015-09-26"
Rev "0.0"
Comp "Black Electronics [INDIA]"
Comment1 "Send production to net via wifi"
Comment2 ""
Comment3 ""
Comment4 ""
$EndDescr
$Comp
L AP1117 U2
U 1 1 56064A6F
P 1750 800
F 0 "U2" H 1850 550 50  0000 C CNN
F 1 "1117-5" H 1750 1050 50  0000 C CNN
F 2 "TO_SOT_Packages_SMD:SOT223_Pad_2_short" H 1750 800 60  0001 C CNN
F 3 "" H 1750 800 60  0000 C CNN
	1    1750 800 
	1    0    0    -1  
$EndComp
$Comp
L AP1117 U1
U 1 1 56064AB7
P 1350 1500
F 0 "U1" H 1450 1250 50  0000 C CNN
F 1 "1117-3V3" H 1350 1750 50  0000 C CNN
F 2 "TO_SOT_Packages_SMD:SOT223_Pad_2_short" H 1350 1500 60  0001 C CNN
F 3 "" H 1350 1500 60  0000 C CNN
	1    1350 1500
	1    0    0    -1  
$EndComp
$Comp
L LED D10
U 1 1 56064C13
P 1650 2200
F 0 "D10" H 1650 2300 50  0000 C CNN
F 1 "PWR" H 1650 2100 50  0000 C CNN
F 2 "LEDs:LED-0805" H 1650 2200 60  0001 C CNN
F 3 "" H 1650 2200 60  0000 C CNN
	1    1650 2200
	-1   0    0    1   
$EndComp
$Comp
L D D1
U 1 1 56064D0A
P 1100 800
F 0 "D1" H 1100 900 50  0000 C CNN
F 1 "D" H 1100 700 50  0000 C CNN
F 2 "w_smd_diode:do214ac" H 1100 800 60  0001 C CNN
F 3 "" H 1100 800 60  0000 C CNN
	1    1100 800 
	-1   0    0    1   
$EndComp
$Comp
L CP C3
U 1 1 5606481B
P 2200 1000
F 0 "C3" H 2225 1100 50  0000 L CNN
F 1 "10uF" H 2225 900 50  0000 L CNN
F 2 "Capacitors_ThroughHole:C_Radial_D5_L6_P2.5" H 2238 850 30  0001 C CNN
F 3 "" H 2200 1000 60  0000 C CNN
	1    2200 1000
	1    0    0    -1  
$EndComp
$Comp
L R R1
U 1 1 5606552C
P 1250 2200
F 0 "R1" V 1330 2200 50  0000 C CNN
F 1 "10K" V 1250 2200 50  0000 C CNN
F 2 "Resistors_SMD:R_0805" V 1180 2200 30  0001 C CNN
F 3 "" H 1250 2200 30  0000 C CNN
	1    1250 2200
	0    1    1    0   
$EndComp
$Comp
L GND #PWR01
U 1 1 5606582F
P 1350 1900
F 0 "#PWR01" H 1350 1650 50  0001 C CNN
F 1 "GND" H 1350 1750 50  0000 C CNN
F 2 "" H 1350 1900 60  0000 C CNN
F 3 "" H 1350 1900 60  0000 C CNN
	1    1350 1900
	1    0    0    -1  
$EndComp
$Comp
L GND #PWR02
U 1 1 560658EB
P 1900 2200
F 0 "#PWR02" H 1900 1950 50  0001 C CNN
F 1 "GND" H 1900 2050 50  0000 C CNN
F 2 "" H 1900 2200 60  0000 C CNN
F 3 "" H 1900 2200 60  0000 C CNN
	1    1900 2200
	0    -1   -1   0   
$EndComp
$Comp
L GND #PWR03
U 1 1 560659EF
P 2150 1200
F 0 "#PWR03" H 2150 950 50  0001 C CNN
F 1 "GND" H 2150 1050 50  0000 C CNN
F 2 "" H 2150 1200 60  0000 C CNN
F 3 "" H 2150 1200 60  0000 C CNN
	1    2150 1200
	1    0    0    -1  
$EndComp
Text Label 2250 800  0    60   ~ 0
5V
Text Label 850  1500 0    60   ~ 0
5V
$Comp
L CP C2
U 1 1 560F76EC
P 1750 1700
F 0 "C2" H 1775 1800 50  0000 L CNN
F 1 "100uF" H 1775 1600 50  0000 L CNN
F 2 "Capacitors_ThroughHole:C_Radial_D5_L6_P2.5" H 1788 1550 30  0001 C CNN
F 3 "" H 1750 1700 60  0000 C CNN
	1    1750 1700
	1    0    0    -1  
$EndComp
$Comp
L CP C1
U 1 1 560647E1
P 1350 1000
F 0 "C1" H 1375 1100 50  0000 L CNN
F 1 "100uF" H 1375 900 50  0000 L CNN
F 2 "Capacitors_ThroughHole:C_Radial_D5_L6_P2.5" H 1388 850 30  0001 C CNN
F 3 "" H 1350 1000 60  0000 C CNN
	1    1350 1000
	1    0    0    -1  
$EndComp
Text Label 1300 800  0    60   ~ 0
12V
$Comp
L CONN_01X02 P5
U 1 1 56103105
P 10350 3500
F 0 "P5" H 10350 3650 50  0000 C CNN
F 1 "FAN" V 10450 3500 50  0000 C CNN
F 2 "Pin_Headers:Pin_Header_Straight_1x02" H 10350 3500 60  0001 C CNN
F 3 "" H 10350 3500 60  0000 C CNN
	1    10350 3500
	-1   0    0    -1  
$EndComp
$Comp
L GND #PWR04
U 1 1 56103660
P 10800 3550
F 0 "#PWR04" H 10800 3300 50  0001 C CNN
F 1 "GND" H 10800 3400 50  0000 C CNN
F 2 "" H 10800 3550 60  0000 C CNN
F 3 "" H 10800 3550 60  0000 C CNN
	1    10800 3550
	1    0    0    -1  
$EndComp
Text Label 10800 3450 0    60   ~ 0
12V
Text Notes 550  2400 0    60   ~ 0
Power Supply\n
$Comp
L GND #PWR05
U 1 1 56101B56
P 13500 5850
F 0 "#PWR05" H 13500 5600 50  0001 C CNN
F 1 "GND" H 13500 5700 50  0000 C CNN
F 2 "" H 13500 5850 60  0000 C CNN
F 3 "" H 13500 5850 60  0000 C CNN
	1    13500 5850
	1    0    0    -1  
$EndComp
Text Label 12850 5700 0    60   ~ 0
5V
$Comp
L R R24
U 1 1 56101DE3
P 13050 5900
F 0 "R24" V 13130 5900 50  0000 C CNN
F 1 "10K" V 13050 5900 50  0000 C CNN
F 2 "Resistors_SMD:R_0805" V 12980 5900 30  0001 C CNN
F 3 "" H 13050 5900 30  0000 C CNN
	1    13050 5900
	1    0    0    -1  
$EndComp
$Comp
L R R25
U 1 1 56101E57
P 13250 5900
F 0 "R25" V 13330 5900 50  0000 C CNN
F 1 "10K" V 13250 5900 50  0000 C CNN
F 2 "Resistors_SMD:R_0805" V 13180 5900 30  0001 C CNN
F 3 "" H 13250 5900 30  0000 C CNN
	1    13250 5900
	1    0    0    -1  
$EndComp
$Comp
L DS3231N U5
U 1 1 5610291F
P 14500 6050
F 0 "U5" H 14800 6600 60  0000 C CNN
F 1 "DS3231N" H 14200 5650 60  0000 C CNN
F 2 "SMD_Packages:SO-16-W" H 14500 6050 60  0001 C CNN
F 3 "" H 14500 6050 60  0000 C CNN
	1    14500 6050
	1    0    0    -1  
$EndComp
$Comp
L GND #PWR06
U 1 1 561038C4
P 15300 7000
F 0 "#PWR06" H 15300 6750 50  0001 C CNN
F 1 "GND" H 15300 6850 50  0000 C CNN
F 2 "" H 15300 7000 60  0000 C CNN
F 3 "" H 15300 7000 60  0000 C CNN
	1    15300 7000
	1    0    0    -1  
$EndComp
Text Label 12850 6100 0    60   ~ 0
SDA
Text Label 12850 6250 0    60   ~ 0
SCL
Text Label 13800 5250 0    60   ~ 0
Vbat
$Comp
L CONN_01X02 P10
U 1 1 56106E1A
P 13500 5300
F 0 "P10" H 13500 5450 50  0000 C CNN
F 1 "CR2032" V 13600 5300 50  0000 C CNN
F 2 "terminal:CR2032H" H 13500 5300 60  0001 C CNN
F 3 "" H 13500 5300 60  0000 C CNN
	1    13500 5300
	-1   0    0    -1  
$EndComp
$Comp
L GND #PWR07
U 1 1 56107518
P 13750 5350
F 0 "#PWR07" H 13750 5100 50  0001 C CNN
F 1 "GND" H 13750 5200 50  0000 C CNN
F 2 "" H 13750 5350 60  0000 C CNN
F 3 "" H 13750 5350 60  0000 C CNN
	1    13750 5350
	1    0    0    -1  
$EndComp
NoConn ~ 15400 6000
NoConn ~ 15400 5850
NoConn ~ 15400 5700
Text Notes 12850 7150 0    60   ~ 0
RTC
Text Label 14900 4450 0    60   ~ 0
RX1_ESP_3V3
Text Label 14900 4250 0    60   ~ 0
TX1_ESP_5V
Text Label 1850 1500 0    60   ~ 0
3V3
$Comp
L PWR_FLAG #FLG08
U 1 1 561A8D10
P 14500 5250
F 0 "#FLG08" H 14500 5345 50  0001 C CNN
F 1 "PWR_FLAG" H 14500 5430 50  0000 C CNN
F 2 "" H 14500 5250 60  0000 C CNN
F 3 "" H 14500 5250 60  0000 C CNN
	1    14500 5250
	-1   0    0    1   
$EndComp
$Comp
L C C6
U 1 1 561AA456
P 13400 6550
F 0 "C6" H 13425 6650 50  0000 L CNN
F 1 "10nF" H 13425 6450 50  0000 L CNN
F 2 "Capacitors_SMD:C_0805" H 13438 6400 30  0001 C CNN
F 3 "" H 13400 6550 60  0000 C CNN
	1    13400 6550
	1    0    0    -1  
$EndComp
Text Label 12000 1350 0    60   ~ 0
TX1_ESP_3V3
$Comp
L ESP-12E U3
U 1 1 562B6140
P 10300 1550
F 0 "U3" H 10300 1450 50  0000 C CNN
F 1 "ESP-12E" H 10300 1650 50  0000 C CNN
F 2 "ESP8266:ESP-12E" H 10300 1550 50  0001 C CNN
F 3 "" H 10300 1550 50  0001 C CNN
	1    10300 1550
	1    0    0    -1  
$EndComp
$Comp
L R R18
U 1 1 562F5BE6
P 8550 1100
F 0 "R18" V 8630 1100 50  0000 C CNN
F 1 "10K" V 8550 1100 50  0000 C CNN
F 2 "Resistors_SMD:R_0805" V 8480 1100 30  0001 C CNN
F 3 "" H 8550 1100 30  0000 C CNN
	1    8550 1100
	-1   0    0    1   
$EndComp
Text Label 8250 950  0    60   ~ 0
3V3
$Comp
L R R20
U 1 1 562F773B
P 8900 1450
F 0 "R20" V 8980 1450 50  0000 C CNN
F 1 "10K" V 8900 1450 50  0000 C CNN
F 2 "Resistors_SMD:R_0805" V 8830 1450 30  0001 C CNN
F 3 "" H 8900 1450 30  0000 C CNN
	1    8900 1450
	0    -1   -1   0   
$EndComp
NoConn ~ 9400 1350
NoConn ~ 9400 1550
NoConn ~ 9400 1650
NoConn ~ 9400 1750
NoConn ~ 9400 1850
NoConn ~ 10050 2450
NoConn ~ 10150 2450
NoConn ~ 10250 2450
NoConn ~ 10350 2450
NoConn ~ 10450 2450
NoConn ~ 10550 2450
NoConn ~ 11200 1550
NoConn ~ 11200 1450
$Comp
L GND #PWR09
U 1 1 562FD365
P 11650 2000
F 0 "#PWR09" H 11650 1750 50  0001 C CNN
F 1 "GND" H 11650 1850 50  0000 C CNN
F 2 "" H 11650 2000 60  0000 C CNN
F 3 "" H 11650 2000 60  0000 C CNN
	1    11650 2000
	1    0    0    -1  
$EndComp
Text Notes 8350 4650 0    60   ~ 0
Misc. Headers
Text Notes 8150 2600 0    60   ~ 0
ESP-12
$Comp
L GND #PWR010
U 1 1 5628B185
P 13850 1050
F 0 "#PWR010" H 13850 800 50  0001 C CNN
F 1 "GND" H 13850 900 50  0000 C CNN
F 2 "" H 13850 1050 60  0000 C CNN
F 3 "" H 13850 1050 60  0000 C CNN
	1    13850 1050
	0    1    1    0   
$EndComp
NoConn ~ 13950 5400
$Comp
L SW_PUSH SW2
U 1 1 568BF546
P 9100 1000
F 0 "SW2" H 9100 1000 50  0000 C CNN
F 1 "~R" H 9100 1150 50  0000 C CNN
F 2 "IHE:SW_M6_PTH" H 9100 1000 60  0001 C CNN
F 3 "" H 9100 1000 60  0000 C CNN
	1    9100 1000
	1    0    0    -1  
$EndComp
$Comp
L SW_PUSH SW4
U 1 1 568BFB35
P 11900 1650
F 0 "SW4" H 11900 1650 50  0000 C CNN
F 1 "FU" H 11900 1800 50  0000 C CNN
F 2 "IHE:SW_M6_PTH" H 11900 1650 60  0001 C CNN
F 3 "" H 11900 1650 60  0000 C CNN
	1    11900 1650
	1    0    0    -1  
$EndComp
$Comp
L GND #PWR011
U 1 1 568C0383
P 9550 1000
F 0 "#PWR011" H 9550 750 50  0001 C CNN
F 1 "GND" H 9550 850 50  0000 C CNN
F 2 "" H 9550 1000 60  0000 C CNN
F 3 "" H 9550 1000 60  0000 C CNN
	1    9550 1000
	1    0    0    -1  
$EndComp
$Comp
L R R23
U 1 1 568DA2FF
P 9250 4100
F 0 "R23" V 9330 4100 50  0000 C CNN
F 1 "10K" V 9250 4100 50  0000 C CNN
F 2 "Resistors_SMD:R_0805" V 9180 4100 30  0001 C CNN
F 3 "" H 9250 4100 30  0000 C CNN
	1    9250 4100
	0    1    1    0   
$EndComp
$Comp
L GND #PWR012
U 1 1 568DAA93
P 9050 4400
F 0 "#PWR012" H 9050 4150 50  0001 C CNN
F 1 "GND" H 9050 4250 50  0000 C CNN
F 2 "" H 9050 4400 60  0000 C CNN
F 3 "" H 9050 4400 60  0000 C CNN
	1    9050 4400
	0    -1   -1   0   
$EndComp
Text Label 9000 4000 0    60   ~ 0
OPEN_DETECT
$Comp
L LCD-016N002L DS1
U 1 1 569E0B05
P 14750 1800
F 0 "DS1" H 13950 2200 40  0000 C CNN
F 1 "LCD-016N002L" H 15450 2200 40  0000 C CNN
F 2 "w_indicators:lcd_16x2_Edit" H 14750 1750 35  0000 C CIN
F 3 "" H 14750 1800 60  0000 C CNN
	1    14750 1800
	0    1    1    0   
$EndComp
$Comp
L R R26
U 1 1 569FA4A4
P 14050 2550
F 0 "R26" V 14130 2550 50  0000 C CNN
F 1 "100" V 14050 2550 50  0000 C CNN
F 2 "Resistors_SMD:R_0805" V 13980 2550 30  0001 C CNN
F 3 "" H 14050 2550 30  0000 C CNN
	1    14050 2550
	0    1    1    0   
$EndComp
Text Label 13650 2450 0    60   ~ 0
5V
Text Label 13750 2050 0    60   ~ 0
D4
Text Label 13750 2150 0    60   ~ 0
D5
Text Label 13750 2250 0    60   ~ 0
D6
Text Label 13750 2350 0    60   ~ 0
D7
Text Label 13850 1150 0    60   ~ 0
5V
Text Label 13900 1350 0    60   ~ 0
RS
Text Label 13900 1550 0    60   ~ 0
E
$Comp
L GND #PWR013
U 1 1 569FBDED
P 13800 1450
F 0 "#PWR013" H 13800 1200 50  0001 C CNN
F 1 "GND" H 13800 1300 50  0000 C CNN
F 2 "" H 13800 1450 60  0000 C CNN
F 3 "" H 13800 1450 60  0000 C CNN
	1    13800 1450
	0    1    1    0   
$EndComp
$Comp
L GND #PWR014
U 1 1 569FBE91
P 13800 2600
F 0 "#PWR014" H 13800 2350 50  0001 C CNN
F 1 "GND" H 13800 2450 50  0000 C CNN
F 2 "" H 13800 2600 60  0000 C CNN
F 3 "" H 13800 2600 60  0000 C CNN
	1    13800 2600
	1    0    0    -1  
$EndComp
$Comp
L GND #PWR015
U 1 1 569FC85F
P 13750 1950
F 0 "#PWR015" H 13750 1700 50  0001 C CNN
F 1 "GND" H 13750 1800 50  0000 C CNN
F 2 "" H 13750 1950 60  0000 C CNN
F 3 "" H 13750 1950 60  0000 C CNN
	1    13750 1950
	0    1    1    0   
$EndComp
$Comp
L POT RV1
U 1 1 569FCC35
P 13350 1250
F 0 "RV1" H 13350 1150 50  0000 C CNN
F 1 "10K" H 13350 1250 50  0000 C CNN
F 2 "Potentiometers:Potentiometer_Bourns_3296W_3-8Zoll_Inline_ScrewUp" H 13350 1250 60  0001 C CNN
F 3 "" H 13350 1250 60  0000 C CNN
	1    13350 1250
	0    1    1    0   
$EndComp
$Comp
L GND #PWR016
U 1 1 569FD0D5
P 13350 1550
F 0 "#PWR016" H 13350 1300 50  0001 C CNN
F 1 "GND" H 13350 1400 50  0000 C CNN
F 2 "" H 13350 1550 60  0000 C CNN
F 3 "" H 13350 1550 60  0000 C CNN
	1    13350 1550
	1    0    0    -1  
$EndComp
Text Label 13150 1000 0    60   ~ 0
5V
Text Label 9650 4100 0    60   ~ 0
5V
$Comp
L MicroSD J1
U 1 1 56ACFA85
P 12900 3850
F 0 "J1" H 12700 4550 60  0000 C CNN
F 1 "MicroSD" H 12700 3150 60  0000 C CNN
F 2 "Conn_uSDcard:Conn_uSDcard" H 13000 4000 60  0001 C CNN
F 3 "" H 13000 4000 60  0000 C CNN
	1    12900 3850
	1    0    0    1   
$EndComp
Text Label 4050 1700 0    60   ~ 0
12V
Text Label 13650 4350 0    60   ~ 0
CS
Text Label 13200 3750 0    60   ~ 0
CD
Text Label 13200 3850 0    60   ~ 0
DO
Text Label 13600 3950 0    60   ~ 0
SCK
Text Label 13650 4150 0    60   ~ 0
DI
Text Label 6800 2100 0    60   ~ 0
OPEN_DETECT
Text Label 7150 3200 0    60   ~ 0
SDA
Text Label 7150 3300 0    60   ~ 0
SCL
NoConn ~ 4750 1300
NoConn ~ 4750 1400
Text Label 7150 3100 0    60   ~ 0
RX1_ESP
Text Label 7150 3000 0    60   ~ 0
TX1_ESP_5V
Text Label 4500 4000 0    60   ~ 0
CS
Text Label 4500 4100 0    60   ~ 0
SCK
Text Label 4500 4200 0    60   ~ 0
DI
Text Label 4500 4300 0    60   ~ 0
DO
Text Label 4500 4450 0    60   ~ 0
CD
Text Label 6950 1100 0    60   ~ 0
RS
Text Label 6950 1200 0    60   ~ 0
E
Text Label 6950 1300 0    60   ~ 0
D4
Text Label 6950 1400 0    60   ~ 0
D5
Text Label 6950 1500 0    60   ~ 0
D6
Text Label 6950 1700 0    60   ~ 0
D7
NoConn ~ 4750 4550
NoConn ~ 4750 4650
NoConn ~ 4750 4750
NoConn ~ 4750 4850
NoConn ~ 4750 4950
NoConn ~ 4750 5050
NoConn ~ 4750 5150
NoConn ~ 4750 5300
NoConn ~ 4750 5400
NoConn ~ 4750 5500
NoConn ~ 4750 5600
NoConn ~ 6650 5350
NoConn ~ 6650 5250
NoConn ~ 6650 5150
NoConn ~ 6650 5050
NoConn ~ 6650 4950
NoConn ~ 6650 4850
NoConn ~ 6650 4750
NoConn ~ 6650 4650
NoConn ~ 6650 4500
NoConn ~ 6650 4400
NoConn ~ 6650 4300
NoConn ~ 6650 4200
NoConn ~ 6650 4100
NoConn ~ 6650 4000
NoConn ~ 6650 3900
NoConn ~ 6650 3800
NoConn ~ 6650 3650
NoConn ~ 6650 3550
NoConn ~ 6650 2700
NoConn ~ 6650 2600
NoConn ~ 6650 2000
NoConn ~ 6650 1900
NoConn ~ 6650 1800
NoConn ~ 6650 1000
NoConn ~ 6650 800 
$Comp
L PWR_FLAG #FLG017
U 1 1 56AF2166
P 10600 3350
F 0 "#FLG017" H 10600 3445 50  0001 C CNN
F 1 "PWR_FLAG" H 10600 3530 50  0000 C CNN
F 2 "" H 10600 3350 60  0000 C CNN
F 3 "" H 10600 3350 60  0000 C CNN
	1    10600 3350
	1    0    0    -1  
$EndComp
$Comp
L PWR_FLAG #FLG018
U 1 1 56AF773D
P 10600 3750
F 0 "#FLG018" H 10600 3845 50  0001 C CNN
F 1 "PWR_FLAG" H 10600 3930 50  0000 C CNN
F 2 "" H 10600 3750 60  0000 C CNN
F 3 "" H 10600 3750 60  0000 C CNN
	1    10600 3750
	-1   0    0    1   
$EndComp
$Comp
L GND #PWR019
U 1 1 56AFB196
P 3800 1550
F 0 "#PWR019" H 3800 1300 50  0001 C CNN
F 1 "GND" H 3800 1400 50  0000 C CNN
F 2 "" H 3800 1550 60  0000 C CNN
F 3 "" H 3800 1550 60  0000 C CNN
	1    3800 1550
	1    0    0    -1  
$EndComp
$Comp
L SW_PUSH SW1
U 1 1 56B05D1F
P 4350 1200
F 0 "SW1" H 4350 1200 50  0000 C CNN
F 1 "~R" H 4350 1350 50  0000 C CNN
F 2 "IHE:SW_M6_PTH" H 4350 1200 60  0001 C CNN
F 3 "" H 4350 1200 60  0000 C CNN
	1    4350 1200
	-1   0    0    -1  
$EndComp
$Comp
L CONN_01X02 P9
U 1 1 56B10F40
P 11600 850
F 0 "P9" H 11600 1000 50  0000 C CNN
F 1 "DBG" V 11700 850 50  0000 C CNN
F 2 "Pin_Headers:Pin_Header_Straight_1x02" H 11600 850 60  0001 C CNN
F 3 "" H 11600 850 60  0000 C CNN
	1    11600 850 
	1    0    0    1   
$EndComp
$Comp
L GND #PWR020
U 1 1 56B1C020
P 4600 3800
F 0 "#PWR020" H 4600 3550 50  0001 C CNN
F 1 "GND" H 4600 3650 50  0000 C CNN
F 2 "" H 4600 3800 60  0000 C CNN
F 3 "" H 4600 3800 60  0000 C CNN
	1    4600 3800
	0    1    1    0   
$EndComp
$Comp
L GND #PWR021
U 1 1 56B1C09D
P 6800 900
F 0 "#PWR021" H 6800 650 50  0001 C CNN
F 1 "GND" H 6800 750 50  0000 C CNN
F 2 "" H 6800 900 60  0000 C CNN
F 3 "" H 6800 900 60  0000 C CNN
	1    6800 900 
	0    -1   -1   0   
$EndComp
$Comp
L 4050_IC U4
U 1 1 56B0583B
P 14300 4100
F 0 "U4" H 14300 3650 60  0000 C CNN
F 1 "4050_IC" H 14300 4550 60  0000 C CNN
F 2 "SOIC_Packages:SOIC-16_3.9x9.9mm_Pitch1.27mm" H 14350 4000 60  0001 C CNN
F 3 "" H 14350 4000 60  0000 C CNN
	1    14300 4100
	1    0    0    -1  
$EndComp
$Comp
L GND #PWR022
U 1 1 56B06554
P 13300 3000
F 0 "#PWR022" H 13300 2750 50  0001 C CNN
F 1 "GND" H 13300 2850 50  0000 C CNN
F 2 "" H 13300 3000 60  0000 C CNN
F 3 "" H 13300 3000 60  0000 C CNN
	1    13300 3000
	1    0    0    -1  
$EndComp
$Comp
L GND #PWR023
U 1 1 56B07F98
P 13800 4600
F 0 "#PWR023" H 13800 4350 50  0001 C CNN
F 1 "GND" H 13800 4450 50  0000 C CNN
F 2 "" H 13800 4600 60  0000 C CNN
F 3 "" H 13800 4600 60  0000 C CNN
	1    13800 4600
	1    0    0    -1  
$EndComp
$Comp
L GND #PWR024
U 1 1 56B0811A
P 13200 3950
F 0 "#PWR024" H 13200 3700 50  0001 C CNN
F 1 "GND" H 13200 3800 50  0000 C CNN
F 2 "" H 13200 3950 60  0000 C CNN
F 3 "" H 13200 3950 60  0000 C CNN
	1    13200 3950
	0    -1   -1   0   
$EndComp
Text Label 13650 3600 0    60   ~ 0
3V3
Text Label 14900 4150 0    60   ~ 0
TX1_ESP_3V3
NoConn ~ 14800 3850
NoConn ~ 14800 3950
$Comp
L R R21
U 1 1 56B11C05
P 11400 1750
F 0 "R21" V 11480 1750 50  0000 C CNN
F 1 "10K" V 11400 1750 50  0000 C CNN
F 2 "Resistors_SMD:R_0805" V 11330 1750 30  0001 C CNN
F 3 "" H 11400 1750 30  0000 C CNN
	1    11400 1750
	0    -1   -1   0   
$EndComp
Text Label 11700 1800 0    60   ~ 0
3V3
Text Label 13300 4150 0    60   ~ 0
3V3
Text Label 950  2200 0    60   ~ 0
3V3
NoConn ~ 13100 4450
$Comp
L ARDUINO_MEGA_SHIELD SHIELD1
U 1 1 56AC3F6D
P 5750 3150
F 0 "SHIELD1" H 5350 5650 60  0000 C CNN
F 1 "ARDUINO_MEGA_SHIELD" H 5650 450 60  0000 C CNN
F 2 "w_conn_misc:arduino_mega_header_IMS" H 5750 3150 60  0001 C CNN
F 3 "" H 5750 3150 60  0000 C CNN
	1    5750 3150
	1    0    0    -1  
$EndComp
$Comp
L CONN_01X01 P6
U 1 1 56DFAF16
P 8550 3700
F 0 "P6" H 8550 3800 50  0000 C CNN
F 1 "logo" V 8650 3700 50  0000 C CNN
F 2 "logo:biglogo" H 8550 3700 60  0001 C CNN
F 3 "" H 8550 3700 60  0000 C CNN
	1    8550 3700
	-1   0    0    1   
$EndComp
NoConn ~ 8750 3700
Text Label 1200 3100 0    60   ~ 0
5V
Text Label 1200 2900 0    60   ~ 0
12V
$Comp
L GND #PWR025
U 1 1 56E05F31
P 1200 3200
F 0 "#PWR025" H 1200 2950 50  0001 C CNN
F 1 "GND" H 1200 3050 50  0000 C CNN
F 2 "" H 1200 3200 60  0000 C CNN
F 3 "" H 1200 3200 60  0000 C CNN
	1    1200 3200
	0    -1   -1   0   
$EndComp
$Comp
L RR8 RR1
U 1 1 56E0C403
P 1950 5250
F 0 "RR1" H 2000 5800 50  0000 C CNN
F 1 "10K" V 1980 5250 50  0000 C CNN
F 2 "w_pth_resistors:r-sil_9" H 1950 5250 60  0001 C CNN
F 3 "" H 1950 5250 60  0000 C CNN
	1    1950 5250
	0    -1   1    0   
$EndComp
Text Label 2400 4100 0    60   ~ 0
PROXY_1_IN
Text Label 2400 4200 0    60   ~ 0
PROXY_2_IN
Text Label 2400 4300 0    60   ~ 0
PROXY_3_IN
Text Label 2400 4400 0    60   ~ 0
PROXY_4_IN
Text Label 2400 4500 0    60   ~ 0
PROXY_5_IN
Text Label 2400 4600 0    60   ~ 0
PROXY_6_IN
Text Label 2400 4700 0    60   ~ 0
PROXY_7_IN
Text Label 2400 4800 0    60   ~ 0
PROXY_8_IN
Text Label 2100 5850 0    60   ~ 0
PROXY_1_IN
Text Label 2100 6550 0    60   ~ 0
PROXY_2_IN
Text Label 2100 7200 0    60   ~ 0
PROXY_3_IN
Text Label 2100 7900 0    60   ~ 0
PROXY_4_IN
Text Label 2100 8550 0    60   ~ 0
PROXY_5_IN
Text Label 2100 9250 0    60   ~ 0
PROXY_6_IN
Text Label 2100 9900 0    60   ~ 0
PROXY_7_IN
Text Label 2100 10600 0    60   ~ 0
PROXY_8_IN
$Comp
L ZENERsmall D2
U 1 1 56E3CE2D
P 2950 6050
F 0 "D2" H 2950 6150 40  0000 C CNN
F 1 "4.7V" H 2950 5950 30  0000 C CNN
F 2 "w_smd_diode:sod80" H 2950 6050 60  0001 C CNN
F 3 "" H 2950 6050 60  0000 C CNN
	1    2950 6050
	0    1    1    0   
$EndComp
$Comp
L D_Schottky_Small D11
U 1 1 56E3CF41
P 3250 6050
F 0 "D11" H 3200 6130 50  0000 L CNN
F 1 "1N5817" H 3100 5950 50  0000 L CNN
F 2 "w_smd_diode:do214ac" V 3250 6050 60  0001 C CNN
F 3 "" V 3250 6050 60  0000 C CNN
	1    3250 6050
	0    1    1    0   
$EndComp
$Comp
L Led_Small D35
U 1 1 56E3D9E7
P 5400 6600
F 0 "D35" H 5350 6725 50  0000 L CNN
F 1 "LED" H 5350 6500 50  0000 L CNN
F 2 "LEDs:LED-0805" V 5400 6600 60  0001 C CNN
F 3 "" V 5400 6600 60  0000 C CNN
	1    5400 6600
	-1   0    0    1   
$EndComp
Text Label 4250 6550 0    60   ~ 0
5V
$Comp
L GND #PWR026
U 1 1 56E41D58
P 2600 6200
F 0 "#PWR026" H 2600 5950 50  0001 C CNN
F 1 "GND" H 2600 6050 50  0000 C CNN
F 2 "" H 2600 6200 60  0000 C CNN
F 3 "" H 2600 6200 60  0000 C CNN
	1    2600 6200
	1    0    0    -1  
$EndComp
$Comp
L RR8 RR2
U 1 1 56E4AE38
P 4950 6200
F 0 "RR2" H 5000 6750 50  0000 C CNN
F 1 "1K" V 4980 6200 50  0000 C CNN
F 2 "w_pth_resistors:r-sil_9" H 4950 6200 60  0001 C CNN
F 3 "" H 4950 6200 60  0000 C CNN
	1    4950 6200
	0    -1   -1   0   
$EndComp
$Comp
L Led_Small D36
U 1 1 56E4CEF6
P 5400 6900
F 0 "D36" H 5350 7025 50  0000 L CNN
F 1 "LED" H 5350 6800 50  0000 L CNN
F 2 "LEDs:LED-0805" V 5400 6900 60  0001 C CNN
F 3 "" V 5400 6900 60  0000 C CNN
	1    5400 6900
	-1   0    0    1   
$EndComp
$Comp
L Led_Small D37
U 1 1 56E4D05B
P 5400 7200
F 0 "D37" H 5350 7325 50  0000 L CNN
F 1 "LED" H 5350 7100 50  0000 L CNN
F 2 "LEDs:LED-0805" V 5400 7200 60  0001 C CNN
F 3 "" V 5400 7200 60  0000 C CNN
	1    5400 7200
	-1   0    0    1   
$EndComp
$Comp
L Led_Small D38
U 1 1 56E4D0F9
P 5400 7500
F 0 "D38" H 5350 7625 50  0000 L CNN
F 1 "LED" H 5350 7400 50  0000 L CNN
F 2 "LEDs:LED-0805" V 5400 7500 60  0001 C CNN
F 3 "" V 5400 7500 60  0000 C CNN
	1    5400 7500
	-1   0    0    1   
$EndComp
$Comp
L Led_Small D39
U 1 1 56E4D69F
P 5400 7800
F 0 "D39" H 5350 7925 50  0000 L CNN
F 1 "LED" H 5350 7700 50  0000 L CNN
F 2 "LEDs:LED-0805" V 5400 7800 60  0001 C CNN
F 3 "" V 5400 7800 60  0000 C CNN
	1    5400 7800
	-1   0    0    1   
$EndComp
$Comp
L Led_Small D40
U 1 1 56E4D6A5
P 5400 8100
F 0 "D40" H 5350 8225 50  0000 L CNN
F 1 "LED" H 5350 8000 50  0000 L CNN
F 2 "LEDs:LED-0805" V 5400 8100 60  0001 C CNN
F 3 "" V 5400 8100 60  0000 C CNN
	1    5400 8100
	-1   0    0    1   
$EndComp
$Comp
L Led_Small D41
U 1 1 56E4D6AB
P 5400 8400
F 0 "D41" H 5350 8525 50  0000 L CNN
F 1 "LED" H 5350 8300 50  0000 L CNN
F 2 "LEDs:LED-0805" V 5400 8400 60  0001 C CNN
F 3 "" V 5400 8400 60  0000 C CNN
	1    5400 8400
	-1   0    0    1   
$EndComp
$Comp
L Led_Small D42
U 1 1 56E4D6B1
P 5400 8700
F 0 "D42" H 5350 8825 50  0000 L CNN
F 1 "LED" H 5350 8600 50  0000 L CNN
F 2 "LEDs:LED-0805" V 5400 8700 60  0001 C CNN
F 3 "" V 5400 8700 60  0000 C CNN
	1    5400 8700
	-1   0    0    1   
$EndComp
Wire Wire Line
	750  800  950  800 
Wire Wire Line
	1250 800  1450 800 
Wire Wire Line
	1750 1150 1750 1100
Wire Wire Line
	2050 800  2250 800 
Wire Wire Line
	2200 800  2200 850 
Wire Wire Line
	1050 1500 850  1500
Wire Wire Line
	1650 1500 1850 1500
Wire Wire Line
	1350 1800 1350 1900
Wire Wire Line
	1350 1150 2200 1150
Connection ~ 1750 1150
Wire Wire Line
	2150 1200 2150 1150
Connection ~ 2150 1150
Wire Wire Line
	1750 1500 1750 1550
Connection ~ 1750 1500
Wire Wire Line
	1350 1850 1750 1850
Connection ~ 1350 1850
Wire Wire Line
	1350 850  1350 800 
Connection ~ 1350 800 
Wire Wire Line
	10550 3450 10800 3450
Wire Notes Line
	500  500  500  2450
Wire Notes Line
	500  2450 2500 2450
Wire Notes Line
	2500 500  500  500 
Wire Wire Line
	12850 5700 13600 5700
Wire Wire Line
	12850 6100 13600 6100
Wire Wire Line
	12850 6250 13600 6250
Wire Wire Line
	13050 5750 13050 5700
Connection ~ 13050 5700
Wire Wire Line
	13250 5750 13250 5700
Connection ~ 13250 5700
Wire Wire Line
	13050 6050 13050 6100
Connection ~ 13050 6100
Wire Wire Line
	13250 6050 13250 6250
Connection ~ 13250 6250
Wire Wire Line
	14700 6900 14700 7000
Wire Wire Line
	15500 7000 13400 7000
Wire Wire Line
	14900 7000 14900 6900
Wire Wire Line
	14800 6900 14800 7000
Connection ~ 14800 7000
Wire Wire Line
	15400 6100 15500 6100
Wire Wire Line
	15500 6100 15500 7000
Wire Wire Line
	15500 6200 15400 6200
Connection ~ 14900 7000
Connection ~ 15500 6200
Wire Wire Line
	15400 6300 15500 6300
Connection ~ 15500 6300
Wire Wire Line
	15400 6400 15500 6400
Connection ~ 15500 6400
Wire Wire Line
	15400 6500 15500 6500
Connection ~ 15500 6500
Wire Wire Line
	13700 5250 14250 5250
Wire Wire Line
	13600 5850 13500 5850
Wire Wire Line
	13700 5350 13750 5350
Wire Notes Line
	12800 5100 12800 7200
Wire Notes Line
	12800 7200 15550 7200
Wire Notes Line
	15550 7200 15550 5100
Wire Notes Line
	15550 5100 12800 5100
Wire Notes Line
	2500 2450 2500 500 
Wire Wire Line
	14500 5250 14500 5200
Wire Wire Line
	14500 5200 14150 5200
Wire Wire Line
	14150 5200 14150 5250
Connection ~ 14150 5250
Wire Wire Line
	13400 6400 13400 5700
Connection ~ 13400 5700
Wire Wire Line
	13400 7000 13400 6700
Connection ~ 14700 7000
Wire Wire Line
	1850 2200 1900 2200
Wire Wire Line
	1400 2200 1450 2200
Wire Wire Line
	8550 1250 9400 1250
Wire Wire Line
	8250 950  8550 950 
Wire Wire Line
	8400 1950 9400 1950
Wire Wire Line
	8400 950  8400 1950
Connection ~ 8400 950 
Wire Wire Line
	9050 1450 9400 1450
Wire Wire Line
	8750 1450 8400 1450
Connection ~ 8400 1450
Wire Wire Line
	11200 1250 11450 1250
Wire Wire Line
	11200 1350 12000 1350
Wire Notes Line
	8100 700  12700 700 
Wire Notes Line
	12700 700  12700 2650
Wire Notes Line
	12700 2650 8100 2650
Wire Notes Line
	8100 2650 8100 700 
Wire Wire Line
	9400 1000 9550 1000
Wire Wire Line
	8800 1000 8800 1250
Connection ~ 8800 1250
Wire Wire Line
	11200 1650 11600 1650
Wire Wire Line
	11200 1950 12200 1950
Wire Wire Line
	11650 1950 11650 2000
Wire Wire Line
	12200 1950 12200 1650
Connection ~ 11650 1950
Wire Wire Line
	8750 4100 9100 4100
Wire Wire Line
	9400 4100 9650 4100
Connection ~ 15300 7000
Wire Wire Line
	14250 1050 13850 1050
Wire Wire Line
	14250 1150 13850 1150
Wire Wire Line
	13500 1250 14250 1250
Wire Wire Line
	14250 1650 14100 1650
Wire Wire Line
	14100 1650 14100 1950
Wire Wire Line
	13750 1950 14250 1950
Wire Wire Line
	14250 1750 14100 1750
Connection ~ 14100 1750
Wire Wire Line
	14250 1850 14100 1850
Connection ~ 14100 1850
Connection ~ 14100 1950
Wire Wire Line
	14250 2050 13750 2050
Wire Wire Line
	13750 2150 14250 2150
Wire Wire Line
	13750 2250 14250 2250
Wire Wire Line
	13750 2350 14250 2350
Wire Wire Line
	13650 2450 14250 2450
Wire Wire Line
	13900 1550 14250 1550
Wire Wire Line
	14250 1350 13900 1350
Wire Wire Line
	14250 1450 13800 1450
Wire Wire Line
	13350 1500 13350 1550
Wire Wire Line
	13350 1000 13150 1000
Wire Wire Line
	9000 4000 8900 4000
Wire Wire Line
	8900 4000 8900 4100
Connection ~ 8900 4100
Wire Wire Line
	4750 1700 4050 1700
Wire Wire Line
	4750 1500 4750 1600
Wire Wire Line
	3800 1550 4750 1550
Connection ~ 4750 1550
Wire Notes Line
	12800 700  15550 700 
Wire Notes Line
	15550 700  15550 2900
Wire Notes Line
	15550 2900 12800 2900
Wire Notes Line
	12800 2900 12800 700 
Wire Notes Line
	12450 2950 12450 5050
Wire Notes Line
	12450 5050 15550 5050
Wire Notes Line
	15550 5050 15550 2950
Wire Notes Line
	15550 2950 12450 2950
Wire Wire Line
	6650 3200 7150 3200
Wire Wire Line
	6650 3300 7150 3300
Wire Wire Line
	4500 4000 4750 4000
Wire Wire Line
	4500 4100 4750 4100
Wire Wire Line
	4750 4200 4500 4200
Wire Wire Line
	4500 4300 4750 4300
Wire Wire Line
	4500 4450 4750 4450
Wire Wire Line
	6650 1100 6950 1100
Wire Wire Line
	6650 1200 6950 1200
Wire Wire Line
	6650 1300 6950 1300
Wire Wire Line
	6650 1400 6950 1400
Wire Wire Line
	6650 1500 6950 1500
Wire Wire Line
	6650 1700 6950 1700
Connection ~ 2200 800 
Wire Wire Line
	10550 3550 10800 3550
Wire Wire Line
	6800 2100 6650 2100
Wire Wire Line
	10600 3350 10600 3450
Connection ~ 10600 3450
Wire Wire Line
	10600 3750 10600 3550
Connection ~ 10600 3550
Wire Wire Line
	4650 1200 4750 1200
Wire Wire Line
	4050 1200 4050 1550
Connection ~ 4050 1550
Wire Wire Line
	11400 900  11350 900 
Wire Wire Line
	11350 900  11350 1250
Connection ~ 11350 1250
Wire Wire Line
	11250 1350 11250 800 
Wire Wire Line
	11250 800  11400 800 
Connection ~ 11250 1350
Wire Wire Line
	1100 2200 950  2200
Wire Wire Line
	4700 3850 4750 3850
Wire Wire Line
	4700 3750 4700 3850
Wire Wire Line
	4700 3750 4750 3750
Wire Wire Line
	4700 3800 4600 3800
Connection ~ 4700 3800
Wire Wire Line
	6800 900  6650 900 
Wire Wire Line
	13100 3250 13150 3250
Wire Wire Line
	13150 3000 13150 3550
Wire Wire Line
	13150 3550 13100 3550
Wire Wire Line
	13100 3450 13150 3450
Connection ~ 13150 3450
Wire Wire Line
	13100 3350 13150 3350
Connection ~ 13150 3350
Wire Wire Line
	13150 3000 13300 3000
Connection ~ 13150 3250
Wire Wire Line
	13100 3850 13200 3850
Wire Wire Line
	13200 3750 13100 3750
Wire Wire Line
	13800 4600 13800 4450
Wire Wire Line
	13200 3950 13100 3950
Wire Wire Line
	13650 4350 13800 4350
Wire Wire Line
	13100 4350 13600 4350
Wire Wire Line
	13600 4350 13600 4250
Wire Wire Line
	13600 4250 13800 4250
Wire Wire Line
	13650 4150 13800 4150
Wire Wire Line
	13800 4050 13550 4050
Wire Wire Line
	13550 4050 13550 4250
Wire Wire Line
	13550 4250 13100 4250
Wire Wire Line
	13600 3950 13800 3950
Wire Wire Line
	13800 3850 13500 3850
Wire Wire Line
	13500 3850 13500 4050
Wire Wire Line
	13500 4050 13100 4050
Wire Wire Line
	13800 3750 13800 3600
Wire Wire Line
	13800 3600 13650 3600
Wire Wire Line
	14900 4350 14800 4350
Wire Wire Line
	14800 4450 14900 4450
Wire Wire Line
	11250 1750 11200 1750
Wire Wire Line
	11700 1800 11550 1800
Wire Wire Line
	11550 1800 11550 1750
Wire Wire Line
	13100 4150 13300 4150
Wire Wire Line
	14250 2550 14200 2550
Wire Wire Line
	13900 2550 13800 2550
Wire Wire Line
	13800 2550 13800 2600
Wire Wire Line
	1100 3200 1200 3200
Wire Wire Line
	2800 1900 4750 1900
Wire Wire Line
	2900 2000 4750 2000
Wire Wire Line
	3000 2100 4750 2100
Wire Wire Line
	3100 2200 4750 2200
Wire Wire Line
	3200 2300 4750 2300
Wire Wire Line
	3300 2400 4750 2400
Wire Wire Line
	3400 2500 4750 2500
Wire Wire Line
	3500 2600 4750 2600
Wire Wire Line
	1100 3000 1350 3000
Wire Wire Line
	1100 2900 1200 2900
Wire Wire Line
	1100 4100 2400 4100
Wire Wire Line
	1100 4200 2400 4200
Wire Wire Line
	1100 4300 2400 4300
Wire Wire Line
	1100 4400 2400 4400
Wire Wire Line
	1100 4500 2400 4500
Wire Wire Line
	1100 4600 2400 4600
Wire Wire Line
	1100 4700 2400 4700
Wire Wire Line
	1100 4800 2400 4800
Wire Wire Line
	1500 4900 1150 4900
Wire Wire Line
	1600 4100 1600 4900
Connection ~ 1600 4100
Wire Wire Line
	1700 4900 1700 4200
Connection ~ 1700 4200
Wire Wire Line
	1800 4900 1800 4300
Connection ~ 1800 4300
Wire Wire Line
	1900 4900 1900 4400
Connection ~ 1900 4400
Wire Wire Line
	2000 4900 2000 4500
Connection ~ 2000 4500
Wire Wire Line
	2100 4900 2100 4600
Connection ~ 2100 4600
Wire Wire Line
	2200 4900 2200 4700
Connection ~ 2200 4700
Wire Wire Line
	2300 4900 2300 4800
Connection ~ 2300 4800
Wire Wire Line
	4150 2800 4750 2800
Wire Wire Line
	4150 2900 4750 2900
Wire Wire Line
	4150 3000 4750 3000
Wire Wire Line
	4150 3100 4750 3100
Wire Wire Line
	4150 3200 4750 3200
Wire Wire Line
	4150 3300 4750 3300
Wire Wire Line
	4150 3400 4750 3400
Wire Wire Line
	4150 3500 4750 3500
Wire Wire Line
	2850 5850 3250 5850
Wire Wire Line
	2950 5950 2950 5850
Connection ~ 2950 5850
Wire Wire Line
	3250 5850 3250 5950
Wire Wire Line
	2600 6200 3250 6200
Wire Wire Line
	3250 6200 3250 6150
Wire Wire Line
	2950 6150 2950 6200
Connection ~ 2950 6200
Wire Wire Line
	4500 6550 4250 6550
Wire Wire Line
	5300 6550 5300 6600
Wire Wire Line
	5200 6550 5200 6900
Wire Wire Line
	5200 6900 5300 6900
Wire Wire Line
	5100 6550 5100 7200
Wire Wire Line
	5100 7200 5300 7200
Wire Wire Line
	5000 6550 5000 7500
Wire Wire Line
	5000 7500 5300 7500
Wire Wire Line
	4900 6550 4900 7800
Wire Wire Line
	4900 7800 5300 7800
Wire Wire Line
	4800 6550 4800 8100
Wire Wire Line
	4800 8100 5300 8100
Wire Wire Line
	4700 6550 4700 8400
Wire Wire Line
	4700 8400 5300 8400
Wire Wire Line
	4600 6550 4600 8700
Wire Wire Line
	4600 8700 5300 8700
Wire Wire Line
	5500 6600 5650 6600
Wire Wire Line
	5650 6900 5500 6900
Wire Wire Line
	5650 7200 5500 7200
Wire Wire Line
	5650 7500 5500 7500
Wire Wire Line
	5650 7800 5500 7800
Wire Wire Line
	5650 8100 5500 8100
Wire Wire Line
	5650 8400 5500 8400
Wire Wire Line
	5650 8700 5500 8700
Wire Wire Line
	6650 2300 7050 2300
Wire Wire Line
	7050 2400 6650 2400
Text Label 7050 2300 0    60   ~ 0
TX0
Text Label 7050 2400 0    60   ~ 0
RX0
Text Label 8850 4200 0    60   ~ 0
TX0
Text Label 8850 4300 0    60   ~ 0
RX0
$Comp
L CONN_01X01 P8
U 1 1 56E0259F
P 9350 3700
F 0 "P8" H 9350 3800 50  0000 C CNN
F 1 "INDIA" V 9450 3700 50  0000 C CNN
F 2 "logo:Lion" H 9350 3700 60  0001 C CNN
F 3 "" H 9350 3700 60  0000 C CNN
	1    9350 3700
	-1   0    0    1   
$EndComp
NoConn ~ 9550 3700
Text Label 1150 4900 0    60   ~ 0
12V
Text Label 750  800  0    60   ~ 0
V_IN
Wire Wire Line
	1100 2700 1400 2700
Wire Wire Line
	1100 2800 1350 2800
$Comp
L GND #PWR027
U 1 1 56E0E645
P 1350 2800
F 0 "#PWR027" H 1350 2550 50  0001 C CNN
F 1 "GND" H 1350 2650 50  0000 C CNN
F 2 "" H 1350 2800 60  0000 C CNN
F 3 "" H 1350 2800 60  0000 C CNN
	1    1350 2800
	0    -1   -1   0   
$EndComp
Text Label 1400 2700 0    60   ~ 0
V_IN
$Comp
L GND #PWR028
U 1 1 56E11F55
P 1350 3000
F 0 "#PWR028" H 1350 2750 50  0001 C CNN
F 1 "GND" H 1350 2850 50  0000 C CNN
F 2 "" H 1350 3000 60  0000 C CNN
F 3 "" H 1350 3000 60  0000 C CNN
	1    1350 3000
	0    -1   -1   0   
$EndComp
Wire Wire Line
	1200 3100 1100 3100
Wire Wire Line
	1100 4000 1200 4000
Wire Wire Line
	1550 3900 1100 3900
Wire Wire Line
	1100 3800 1200 3800
Wire Wire Line
	1550 3700 1100 3700
Wire Wire Line
	1100 3600 1200 3600
Wire Wire Line
	1550 3500 1100 3500
Wire Wire Line
	1100 3400 1200 3400
Wire Wire Line
	1550 3300 1100 3300
$Comp
L R_Small R2
U 1 1 56E25024
P 2750 5850
F 0 "R2" H 2780 5870 50  0000 L CNN
F 1 "100" H 2780 5810 50  0000 L CNN
F 2 "Resistors_SMD:R_0805" H 2750 5850 60  0001 C CNN
F 3 "" H 2750 5850 60  0000 C CNN
	1    2750 5850
	0    1    1    0   
$EndComp
Wire Wire Line
	2650 5850 2100 5850
$Comp
L ZENERsmall D3
U 1 1 56E2763F
P 2950 6750
F 0 "D3" H 2950 6850 40  0000 C CNN
F 1 "4.7V" H 2950 6650 30  0000 C CNN
F 2 "w_smd_diode:sod80" H 2950 6750 60  0001 C CNN
F 3 "" H 2950 6750 60  0000 C CNN
	1    2950 6750
	0    1    1    0   
$EndComp
$Comp
L D_Schottky_Small D12
U 1 1 56E27645
P 3250 6750
F 0 "D12" H 3200 6830 50  0000 L CNN
F 1 "1N5817" H 3100 6650 50  0000 L CNN
F 2 "w_smd_diode:do214ac" V 3250 6750 60  0001 C CNN
F 3 "" V 3250 6750 60  0000 C CNN
	1    3250 6750
	0    1    1    0   
$EndComp
$Comp
L GND #PWR029
U 1 1 56E2764B
P 2600 6900
F 0 "#PWR029" H 2600 6650 50  0001 C CNN
F 1 "GND" H 2600 6750 50  0000 C CNN
F 2 "" H 2600 6900 60  0000 C CNN
F 3 "" H 2600 6900 60  0000 C CNN
	1    2600 6900
	1    0    0    -1  
$EndComp
Wire Wire Line
	2850 6550 3250 6550
Wire Wire Line
	2950 6650 2950 6550
Connection ~ 2950 6550
Wire Wire Line
	3250 6550 3250 6650
Wire Wire Line
	2600 6900 3250 6900
Wire Wire Line
	3250 6900 3250 6850
Wire Wire Line
	2950 6850 2950 6900
Connection ~ 2950 6900
$Comp
L R_Small R3
U 1 1 56E2765B
P 2750 6550
F 0 "R3" H 2780 6570 50  0000 L CNN
F 1 "100" H 2780 6510 50  0000 L CNN
F 2 "Resistors_SMD:R_0805" H 2750 6550 60  0001 C CNN
F 3 "" H 2750 6550 60  0000 C CNN
	1    2750 6550
	0    1    1    0   
$EndComp
Wire Wire Line
	2650 6550 2100 6550
$Comp
L ZENERsmall D4
U 1 1 56E282C6
P 2950 7400
F 0 "D4" H 2950 7500 40  0000 C CNN
F 1 "4.7V" H 2950 7300 30  0000 C CNN
F 2 "w_smd_diode:sod80" H 2950 7400 60  0001 C CNN
F 3 "" H 2950 7400 60  0000 C CNN
	1    2950 7400
	0    1    1    0   
$EndComp
$Comp
L D_Schottky_Small D13
U 1 1 56E282CC
P 3250 7400
F 0 "D13" H 3200 7480 50  0000 L CNN
F 1 "1N5817" H 3100 7300 50  0000 L CNN
F 2 "w_smd_diode:do214ac" V 3250 7400 60  0001 C CNN
F 3 "" V 3250 7400 60  0000 C CNN
	1    3250 7400
	0    1    1    0   
$EndComp
$Comp
L GND #PWR030
U 1 1 56E282D2
P 2600 7550
F 0 "#PWR030" H 2600 7300 50  0001 C CNN
F 1 "GND" H 2600 7400 50  0000 C CNN
F 2 "" H 2600 7550 60  0000 C CNN
F 3 "" H 2600 7550 60  0000 C CNN
	1    2600 7550
	1    0    0    -1  
$EndComp
Wire Wire Line
	2850 7200 3250 7200
Wire Wire Line
	2950 7300 2950 7200
Connection ~ 2950 7200
Wire Wire Line
	3250 7200 3250 7300
Wire Wire Line
	2600 7550 3250 7550
Wire Wire Line
	3250 7550 3250 7500
Wire Wire Line
	2950 7500 2950 7550
Connection ~ 2950 7550
$Comp
L R_Small R4
U 1 1 56E282E2
P 2750 7200
F 0 "R4" H 2780 7220 50  0000 L CNN
F 1 "100" H 2780 7160 50  0000 L CNN
F 2 "Resistors_SMD:R_0805" H 2750 7200 60  0001 C CNN
F 3 "" H 2750 7200 60  0000 C CNN
	1    2750 7200
	0    1    1    0   
$EndComp
Wire Wire Line
	2650 7200 2100 7200
$Comp
L ZENERsmall D5
U 1 1 56E282E9
P 2950 8100
F 0 "D5" H 2950 8200 40  0000 C CNN
F 1 "4.7V" H 2950 8000 30  0000 C CNN
F 2 "w_smd_diode:sod80" H 2950 8100 60  0001 C CNN
F 3 "" H 2950 8100 60  0000 C CNN
	1    2950 8100
	0    1    1    0   
$EndComp
$Comp
L D_Schottky_Small D14
U 1 1 56E282EF
P 3250 8100
F 0 "D14" H 3200 8180 50  0000 L CNN
F 1 "1N5817" H 3100 8000 50  0000 L CNN
F 2 "w_smd_diode:do214ac" V 3250 8100 60  0001 C CNN
F 3 "" V 3250 8100 60  0000 C CNN
	1    3250 8100
	0    1    1    0   
$EndComp
$Comp
L GND #PWR031
U 1 1 56E282F5
P 2600 8250
F 0 "#PWR031" H 2600 8000 50  0001 C CNN
F 1 "GND" H 2600 8100 50  0000 C CNN
F 2 "" H 2600 8250 60  0000 C CNN
F 3 "" H 2600 8250 60  0000 C CNN
	1    2600 8250
	1    0    0    -1  
$EndComp
Wire Wire Line
	2850 7900 3250 7900
Wire Wire Line
	2950 8000 2950 7900
Connection ~ 2950 7900
Wire Wire Line
	3250 7900 3250 8000
Wire Wire Line
	2600 8250 3250 8250
Wire Wire Line
	3250 8250 3250 8200
Wire Wire Line
	2950 8200 2950 8250
Connection ~ 2950 8250
$Comp
L R_Small R5
U 1 1 56E28305
P 2750 7900
F 0 "R5" H 2780 7920 50  0000 L CNN
F 1 "100" H 2780 7860 50  0000 L CNN
F 2 "Resistors_SMD:R_0805" H 2750 7900 60  0001 C CNN
F 3 "" H 2750 7900 60  0000 C CNN
	1    2750 7900
	0    1    1    0   
$EndComp
Wire Wire Line
	2650 7900 2100 7900
$Comp
L ZENERsmall D6
U 1 1 56E288D4
P 2950 8750
F 0 "D6" H 2950 8850 40  0000 C CNN
F 1 "4.7V" H 2950 8650 30  0000 C CNN
F 2 "w_smd_diode:sod80" H 2950 8750 60  0001 C CNN
F 3 "" H 2950 8750 60  0000 C CNN
	1    2950 8750
	0    1    1    0   
$EndComp
$Comp
L D_Schottky_Small D15
U 1 1 56E288DA
P 3250 8750
F 0 "D15" H 3200 8830 50  0000 L CNN
F 1 "1N5817" H 3100 8650 50  0000 L CNN
F 2 "w_smd_diode:do214ac" V 3250 8750 60  0001 C CNN
F 3 "" V 3250 8750 60  0000 C CNN
	1    3250 8750
	0    1    1    0   
$EndComp
$Comp
L GND #PWR032
U 1 1 56E288E0
P 2600 8900
F 0 "#PWR032" H 2600 8650 50  0001 C CNN
F 1 "GND" H 2600 8750 50  0000 C CNN
F 2 "" H 2600 8900 60  0000 C CNN
F 3 "" H 2600 8900 60  0000 C CNN
	1    2600 8900
	1    0    0    -1  
$EndComp
Wire Wire Line
	2850 8550 3250 8550
Wire Wire Line
	2950 8650 2950 8550
Connection ~ 2950 8550
Wire Wire Line
	3250 8550 3250 8650
Wire Wire Line
	2600 8900 3250 8900
Wire Wire Line
	3250 8900 3250 8850
Wire Wire Line
	2950 8850 2950 8900
Connection ~ 2950 8900
$Comp
L R_Small R6
U 1 1 56E288F0
P 2750 8550
F 0 "R6" H 2780 8570 50  0000 L CNN
F 1 "100" H 2780 8510 50  0000 L CNN
F 2 "Resistors_SMD:R_0805" H 2750 8550 60  0001 C CNN
F 3 "" H 2750 8550 60  0000 C CNN
	1    2750 8550
	0    1    1    0   
$EndComp
Wire Wire Line
	2650 8550 2100 8550
$Comp
L ZENERsmall D7
U 1 1 56E288F7
P 2950 9450
F 0 "D7" H 2950 9550 40  0000 C CNN
F 1 "4.7V" H 2950 9350 30  0000 C CNN
F 2 "w_smd_diode:sod80" H 2950 9450 60  0001 C CNN
F 3 "" H 2950 9450 60  0000 C CNN
	1    2950 9450
	0    1    1    0   
$EndComp
$Comp
L D_Schottky_Small D16
U 1 1 56E288FD
P 3250 9450
F 0 "D16" H 3200 9530 50  0000 L CNN
F 1 "1N5817" H 3100 9350 50  0000 L CNN
F 2 "w_smd_diode:do214ac" V 3250 9450 60  0001 C CNN
F 3 "" V 3250 9450 60  0000 C CNN
	1    3250 9450
	0    1    1    0   
$EndComp
$Comp
L GND #PWR033
U 1 1 56E28903
P 2600 9600
F 0 "#PWR033" H 2600 9350 50  0001 C CNN
F 1 "GND" H 2600 9450 50  0000 C CNN
F 2 "" H 2600 9600 60  0000 C CNN
F 3 "" H 2600 9600 60  0000 C CNN
	1    2600 9600
	1    0    0    -1  
$EndComp
Wire Wire Line
	2850 9250 3250 9250
Wire Wire Line
	2950 9350 2950 9250
Connection ~ 2950 9250
Wire Wire Line
	3250 9250 3250 9350
Wire Wire Line
	2600 9600 3250 9600
Wire Wire Line
	3250 9600 3250 9550
Wire Wire Line
	2950 9550 2950 9600
Connection ~ 2950 9600
$Comp
L R_Small R7
U 1 1 56E28913
P 2750 9250
F 0 "R7" H 2780 9270 50  0000 L CNN
F 1 "100" H 2780 9210 50  0000 L CNN
F 2 "Resistors_SMD:R_0805" H 2750 9250 60  0001 C CNN
F 3 "" H 2750 9250 60  0000 C CNN
	1    2750 9250
	0    1    1    0   
$EndComp
Wire Wire Line
	2650 9250 2100 9250
$Comp
L ZENERsmall D8
U 1 1 56E2891A
P 2950 10100
F 0 "D8" H 2950 10200 40  0000 C CNN
F 1 "4.7V" H 2950 10000 30  0000 C CNN
F 2 "w_smd_diode:sod80" H 2950 10100 60  0001 C CNN
F 3 "" H 2950 10100 60  0000 C CNN
	1    2950 10100
	0    1    1    0   
$EndComp
$Comp
L D_Schottky_Small D17
U 1 1 56E28920
P 3250 10100
F 0 "D17" H 3200 10180 50  0000 L CNN
F 1 "1N5817" H 3100 10000 50  0000 L CNN
F 2 "w_smd_diode:do214ac" V 3250 10100 60  0001 C CNN
F 3 "" V 3250 10100 60  0000 C CNN
	1    3250 10100
	0    1    1    0   
$EndComp
$Comp
L GND #PWR034
U 1 1 56E28926
P 2600 10250
F 0 "#PWR034" H 2600 10000 50  0001 C CNN
F 1 "GND" H 2600 10100 50  0000 C CNN
F 2 "" H 2600 10250 60  0000 C CNN
F 3 "" H 2600 10250 60  0000 C CNN
	1    2600 10250
	1    0    0    -1  
$EndComp
Wire Wire Line
	2850 9900 3250 9900
Wire Wire Line
	2950 10000 2950 9900
Connection ~ 2950 9900
Wire Wire Line
	3250 9900 3250 10000
Wire Wire Line
	2600 10250 3250 10250
Wire Wire Line
	3250 10250 3250 10200
Wire Wire Line
	2950 10200 2950 10250
Connection ~ 2950 10250
$Comp
L R_Small R8
U 1 1 56E28936
P 2750 9900
F 0 "R8" H 2780 9920 50  0000 L CNN
F 1 "100" H 2780 9860 50  0000 L CNN
F 2 "Resistors_SMD:R_0805" H 2750 9900 60  0001 C CNN
F 3 "" H 2750 9900 60  0000 C CNN
	1    2750 9900
	0    1    1    0   
$EndComp
Wire Wire Line
	2650 9900 2100 9900
$Comp
L ZENERsmall D9
U 1 1 56E2893D
P 2950 10800
F 0 "D9" H 2950 10900 40  0000 C CNN
F 1 "4.7V" H 2950 10700 30  0000 C CNN
F 2 "w_smd_diode:sod80" H 2950 10800 60  0001 C CNN
F 3 "" H 2950 10800 60  0000 C CNN
	1    2950 10800
	0    1    1    0   
$EndComp
$Comp
L D_Schottky_Small D18
U 1 1 56E28943
P 3250 10800
F 0 "D18" H 3200 10880 50  0000 L CNN
F 1 "1N5817" H 3100 10700 50  0000 L CNN
F 2 "w_smd_diode:do214ac" V 3250 10800 60  0001 C CNN
F 3 "" V 3250 10800 60  0000 C CNN
	1    3250 10800
	0    1    1    0   
$EndComp
$Comp
L GND #PWR035
U 1 1 56E28949
P 2600 10950
F 0 "#PWR035" H 2600 10700 50  0001 C CNN
F 1 "GND" H 2600 10800 50  0000 C CNN
F 2 "" H 2600 10950 60  0000 C CNN
F 3 "" H 2600 10950 60  0000 C CNN
	1    2600 10950
	1    0    0    -1  
$EndComp
Wire Wire Line
	2850 10600 3250 10600
Wire Wire Line
	2950 10700 2950 10600
Connection ~ 2950 10600
Wire Wire Line
	3250 10600 3250 10700
Wire Wire Line
	2600 10950 3250 10950
Wire Wire Line
	3250 10950 3250 10900
Wire Wire Line
	2950 10900 2950 10950
Connection ~ 2950 10950
$Comp
L R_Small R9
U 1 1 56E28959
P 2750 10600
F 0 "R9" H 2780 10620 50  0000 L CNN
F 1 "100" H 2780 10560 50  0000 L CNN
F 2 "Resistors_SMD:R_0805" H 2750 10600 60  0001 C CNN
F 3 "" H 2750 10600 60  0000 C CNN
	1    2750 10600
	0    1    1    0   
$EndComp
Wire Wire Line
	2650 10600 2100 10600
Text Label 3250 5850 0    60   ~ 0
PROXY_1_5V
Text Label 3250 6550 0    60   ~ 0
PROXY_2_5V
Text Label 3250 7200 0    60   ~ 0
PROXY_3_5V
Text Label 3250 7900 0    60   ~ 0
PROXY_4_5V
Text Label 3250 8550 0    60   ~ 0
PROXY_5_5V
Text Label 3250 9250 0    60   ~ 0
PROXY_6_5V
Text Label 3250 9900 0    60   ~ 0
PROXY_7_5V
Text Label 3250 10600 0    60   ~ 0
PROXY_8_5V
Text Label 4150 2800 0    60   ~ 0
PROXY_1_5V
Text Label 4150 2900 0    60   ~ 0
PROXY_2_5V
Text Label 4150 3000 0    60   ~ 0
PROXY_3_5V
Text Label 4150 3100 0    60   ~ 0
PROXY_4_5V
Text Label 4150 3200 0    60   ~ 0
PROXY_5_5V
Text Label 4150 3300 0    60   ~ 0
PROXY_6_5V
Text Label 4150 3400 0    60   ~ 0
PROXY_7_5V
Text Label 4150 3500 0    60   ~ 0
PROXY_8_5V
$Comp
L SW_PUSH SW3
U 1 1 56E35E08
P 9300 3100
F 0 "SW3" H 9300 3100 50  0000 C CNN
F 1 "CycleValues" H 9300 3250 50  0000 C CNN
F 2 "IHE:SW_M6_PTH" H 9300 3100 60  0001 C CNN
F 3 "" H 9300 3100 60  0000 C CNN
	1    9300 3100
	1    0    0    -1  
$EndComp
Wire Wire Line
	8800 3100 9000 3100
$Comp
L R R19
U 1 1 56E36BFE
P 8650 3100
F 0 "R19" V 8730 3100 50  0000 C CNN
F 1 "10K" V 8650 3100 50  0000 C CNN
F 2 "Resistors_SMD:R_0805" V 8580 3100 30  0001 C CNN
F 3 "" H 8650 3100 30  0000 C CNN
	1    8650 3100
	0    1    1    0   
$EndComp
Wire Wire Line
	8500 3100 8250 3100
Text Label 8250 3100 0    60   ~ 0
5V
Wire Wire Line
	8250 2850 8900 2850
Wire Wire Line
	8900 2850 8900 3100
Connection ~ 8900 3100
Text Label 8250 2850 0    60   ~ 0
CycleDisplay
$Comp
L GND #PWR036
U 1 1 56E374DC
P 9750 3100
F 0 "#PWR036" H 9750 2850 50  0001 C CNN
F 1 "GND" H 9750 2950 50  0000 C CNN
F 2 "" H 9750 3100 60  0000 C CNN
F 3 "" H 9750 3100 60  0000 C CNN
	1    9750 3100
	1    0    0    -1  
$EndComp
Wire Wire Line
	9600 3100 9750 3100
$Comp
L C C5
U 1 1 56E39A7C
P 9300 3350
F 0 "C5" H 9325 3450 50  0000 L CNN
F 1 "10nF" H 9325 3250 50  0000 L CNN
F 2 "Capacitors_SMD:C_0805" H 9338 3200 30  0001 C CNN
F 3 "" H 9300 3350 60  0000 C CNN
	1    9300 3350
	0    1    1    0   
$EndComp
Wire Wire Line
	8950 3100 8950 3350
Wire Wire Line
	8950 3350 9150 3350
Connection ~ 8950 3100
Wire Wire Line
	9450 3350 9650 3350
Wire Wire Line
	9650 3350 9650 3100
Connection ~ 9650 3100
Text Label 5650 8700 0    60   ~ 0
PROXY_1_5V
Text Label 5650 8400 0    60   ~ 0
PROXY_2_5V
Text Label 5650 8100 0    60   ~ 0
PROXY_3_5V
Text Label 5650 7800 0    60   ~ 0
PROXY_4_5V
Text Label 5650 7500 0    60   ~ 0
PROXY_5_5V
Text Label 5650 7200 0    60   ~ 0
PROXY_6_5V
Text Label 5650 6900 0    60   ~ 0
PROXY_7_5V
Text Label 5650 6600 0    60   ~ 0
PROXY_8_5V
$Comp
L CONN_01X11 P1
U 1 1 56E15406
P 900 3200
F 0 "P1" H 900 3800 50  0000 C CNN
F 1 "CONN_01X11" V 1000 3200 50  0000 C CNN
F 2 "w_conn_mkds:mkds_1,5-11" H 900 3200 60  0001 C CNN
F 3 "" H 900 3200 60  0000 C CNN
	1    900  3200
	-1   0    0    -1  
$EndComp
$Comp
L CONN_01X11 P2
U 1 1 56E15531
P 900 4300
F 0 "P2" H 900 4900 50  0000 C CNN
F 1 "CONN_01X11" V 1000 4300 50  0000 C CNN
F 2 "w_conn_mkds:mkds_1,5-11" H 900 4300 60  0001 C CNN
F 3 "" H 900 4300 60  0000 C CNN
	1    900  4300
	-1   0    0    -1  
$EndComp
$Comp
L CONN_01X01 P3
U 1 1 56E23D0C
P 3900 800
F 0 "P3" H 3900 900 50  0000 C CNN
F 1 "~R" V 4000 800 50  0000 C CNN
F 2 "Pin_Headers:Pin_Header_Straight_1x01" H 3900 800 60  0001 C CNN
F 3 "" H 3900 800 60  0000 C CNN
	1    3900 800 
	-1   0    0    1   
$EndComp
Wire Wire Line
	4700 800  4700 1200
Connection ~ 4700 1200
$Comp
L R R22
U 1 1 56E2A40C
P 11400 1850
F 0 "R22" V 11300 1850 50  0000 C CNN
F 1 "10K" V 11400 1850 50  0000 C CNN
F 2 "Resistors_SMD:R_0805" V 11330 1850 30  0001 C CNN
F 3 "" H 11400 1850 30  0000 C CNN
	1    11400 1850
	0    -1   -1   0   
$EndComp
Wire Wire Line
	11250 1850 11200 1850
Wire Wire Line
	11550 1850 11550 1950
Connection ~ 11550 1950
Text Label 11450 1250 0    60   ~ 0
RX1_ESP_3V3
Wire Wire Line
	14900 4250 14800 4250
Text Label 14900 4350 0    60   ~ 0
RX1_ESP
Wire Wire Line
	14900 4150 14800 4150
Text Label 6800 2200 0    60   ~ 0
CycleDisplay
Wire Wire Line
	6800 2200 6650 2200
$Comp
L C C4
U 1 1 56E61A47
P 4350 800
F 0 "C4" H 4375 900 50  0000 L CNN
F 1 "10nF" H 4375 700 50  0000 L CNN
F 2 "Capacitors_SMD:C_0805" H 4388 650 30  0001 C CNN
F 3 "" H 4350 800 60  0000 C CNN
	1    4350 800 
	0    1    1    0   
$EndComp
Wire Wire Line
	4500 800  4700 800 
Wire Wire Line
	4200 800  4100 800 
Wire Wire Line
	6650 3000 7150 3000
Wire Wire Line
	6650 3100 7150 3100
$Comp
L R R10
U 1 1 56E4AB8A
P 1700 3300
F 0 "R10" V 1780 3300 50  0000 C CNN
F 1 "100" V 1700 3300 50  0000 C CNN
F 2 "Resistors_SMD:R_0805" V 1630 3300 30  0001 C CNN
F 3 "" H 1700 3300 30  0000 C CNN
	1    1700 3300
	0    1    1    0   
$EndComp
$Comp
L R R11
U 1 1 56E4B0BB
P 1350 3400
F 0 "R11" V 1430 3400 50  0000 C CNN
F 1 "100" V 1350 3400 50  0000 C CNN
F 2 "Resistors_SMD:R_0805" V 1280 3400 30  0001 C CNN
F 3 "" H 1350 3400 30  0000 C CNN
	1    1350 3400
	0    1    1    0   
$EndComp
$Comp
L R R12
U 1 1 56E4B1C6
P 1700 3500
F 0 "R12" V 1780 3500 50  0000 C CNN
F 1 "100" V 1700 3500 50  0000 C CNN
F 2 "Resistors_SMD:R_0805" V 1630 3500 30  0001 C CNN
F 3 "" H 1700 3500 30  0000 C CNN
	1    1700 3500
	0    1    1    0   
$EndComp
$Comp
L R R13
U 1 1 56E4BC68
P 1350 3600
F 0 "R13" V 1430 3600 50  0000 C CNN
F 1 "100" V 1350 3600 50  0000 C CNN
F 2 "Resistors_SMD:R_0805" V 1280 3600 30  0001 C CNN
F 3 "" H 1350 3600 30  0000 C CNN
	1    1350 3600
	0    1    1    0   
$EndComp
$Comp
L R R14
U 1 1 56E4BD71
P 1700 3700
F 0 "R14" V 1780 3700 50  0000 C CNN
F 1 "100" V 1700 3700 50  0000 C CNN
F 2 "Resistors_SMD:R_0805" V 1630 3700 30  0001 C CNN
F 3 "" H 1700 3700 30  0000 C CNN
	1    1700 3700
	0    1    1    0   
$EndComp
$Comp
L R R15
U 1 1 56E4BE7D
P 1350 3800
F 0 "R15" V 1430 3800 50  0000 C CNN
F 1 "100" V 1350 3800 50  0000 C CNN
F 2 "Resistors_SMD:R_0805" V 1280 3800 30  0001 C CNN
F 3 "" H 1350 3800 30  0000 C CNN
	1    1350 3800
	0    1    1    0   
$EndComp
$Comp
L R R16
U 1 1 56E4C093
P 1700 3900
F 0 "R16" V 1780 3900 50  0000 C CNN
F 1 "100" V 1700 3900 50  0000 C CNN
F 2 "Resistors_SMD:R_0805" V 1630 3900 30  0001 C CNN
F 3 "" H 1700 3900 30  0000 C CNN
	1    1700 3900
	0    1    1    0   
$EndComp
$Comp
L R R17
U 1 1 56E4C251
P 1350 4000
F 0 "R17" V 1430 4000 50  0000 C CNN
F 1 "100" V 1350 4000 50  0000 C CNN
F 2 "Resistors_SMD:R_0805" V 1280 4000 30  0001 C CNN
F 3 "" H 1350 4000 30  0000 C CNN
	1    1350 4000
	0    1    1    0   
$EndComp
Wire Wire Line
	1850 3300 2800 3300
Wire Wire Line
	2800 3300 2800 1900
Wire Wire Line
	1500 3400 2900 3400
Wire Wire Line
	2900 3400 2900 2000
Wire Wire Line
	3000 2100 3000 3500
Wire Wire Line
	3000 3500 1850 3500
Wire Wire Line
	3100 2200 3100 3600
Wire Wire Line
	3100 3600 1500 3600
Wire Wire Line
	3200 2300 3200 3700
Wire Wire Line
	3200 3700 1850 3700
Wire Wire Line
	3300 2400 3300 3800
Wire Wire Line
	3300 3800 1500 3800
Wire Wire Line
	3400 2500 3400 3900
Wire Wire Line
	3400 3900 1850 3900
Wire Wire Line
	3500 2600 3500 4000
Wire Wire Line
	3500 4000 1500 4000
Text Label 950  5850 0    60   ~ 0
Sensor1
Text Label 950  6550 0    60   ~ 0
Sensor2
Text Label 2000 3500 0    60   ~ 0
Sensor3
Text Label 2000 3600 0    60   ~ 0
Sensor4
Text Label 2000 3700 0    60   ~ 0
Sensor5
Text Label 2000 3800 0    60   ~ 0
Sensor6
Text Label 2000 3900 0    60   ~ 0
Sensor7
Text Label 2000 4000 0    60   ~ 0
Sensor8
$Comp
L ZENERsmall D19
U 1 1 56E5AB30
P 1350 6050
F 0 "D19" H 1350 6150 40  0000 C CNN
F 1 "4.7V" H 1350 5950 30  0000 C CNN
F 2 "w_smd_diode:sod80" H 1350 6050 60  0001 C CNN
F 3 "" H 1350 6050 60  0000 C CNN
	1    1350 6050
	0    1    1    0   
$EndComp
$Comp
L D_Schottky_Small D27
U 1 1 56E5AB36
P 1650 6050
F 0 "D27" H 1600 6130 50  0000 L CNN
F 1 "1N5817" H 1500 5950 50  0000 L CNN
F 2 "w_smd_diode:do214ac" V 1650 6050 60  0001 C CNN
F 3 "" V 1650 6050 60  0000 C CNN
	1    1650 6050
	0    1    1    0   
$EndComp
Wire Wire Line
	950  5850 1650 5850
Wire Wire Line
	1350 5950 1350 5850
Connection ~ 1350 5850
Wire Wire Line
	1650 5850 1650 5950
Wire Wire Line
	1000 6200 1650 6200
Wire Wire Line
	1650 6200 1650 6150
Wire Wire Line
	1350 6150 1350 6200
Connection ~ 1350 6200
$Comp
L ZENERsmall D20
U 1 1 56E5AB44
P 1350 6750
F 0 "D20" H 1350 6850 40  0000 C CNN
F 1 "4.7V" H 1350 6650 30  0000 C CNN
F 2 "w_smd_diode:sod80" H 1350 6750 60  0001 C CNN
F 3 "" H 1350 6750 60  0000 C CNN
	1    1350 6750
	0    1    1    0   
$EndComp
$Comp
L D_Schottky_Small D28
U 1 1 56E5AB4A
P 1650 6750
F 0 "D28" H 1600 6830 50  0000 L CNN
F 1 "1N5817" H 1500 6650 50  0000 L CNN
F 2 "w_smd_diode:do214ac" V 1650 6750 60  0001 C CNN
F 3 "" V 1650 6750 60  0000 C CNN
	1    1650 6750
	0    1    1    0   
$EndComp
Wire Wire Line
	950  6550 1650 6550
Wire Wire Line
	1350 6650 1350 6550
Connection ~ 1350 6550
Wire Wire Line
	1650 6550 1650 6650
Wire Wire Line
	1000 6900 1650 6900
Wire Wire Line
	1650 6900 1650 6850
Wire Wire Line
	1350 6850 1350 6900
Connection ~ 1350 6900
$Comp
L ZENERsmall D21
U 1 1 56E5AB58
P 1350 7400
F 0 "D21" H 1350 7500 40  0000 C CNN
F 1 "4.7V" H 1350 7300 30  0000 C CNN
F 2 "w_smd_diode:sod80" H 1350 7400 60  0001 C CNN
F 3 "" H 1350 7400 60  0000 C CNN
	1    1350 7400
	0    1    1    0   
$EndComp
$Comp
L D_Schottky_Small D29
U 1 1 56E5AB5E
P 1650 7400
F 0 "D29" H 1600 7480 50  0000 L CNN
F 1 "1N5817" H 1500 7300 50  0000 L CNN
F 2 "w_smd_diode:do214ac" V 1650 7400 60  0001 C CNN
F 3 "" V 1650 7400 60  0000 C CNN
	1    1650 7400
	0    1    1    0   
$EndComp
Wire Wire Line
	950  7200 1650 7200
Wire Wire Line
	1350 7300 1350 7200
Connection ~ 1350 7200
Wire Wire Line
	1650 7200 1650 7300
Wire Wire Line
	1000 7550 1650 7550
Wire Wire Line
	1650 7550 1650 7500
Wire Wire Line
	1350 7500 1350 7550
Connection ~ 1350 7550
$Comp
L ZENERsmall D22
U 1 1 56E5AB6C
P 1350 8100
F 0 "D22" H 1350 8200 40  0000 C CNN
F 1 "4.7V" H 1350 8000 30  0000 C CNN
F 2 "w_smd_diode:sod80" H 1350 8100 60  0001 C CNN
F 3 "" H 1350 8100 60  0000 C CNN
	1    1350 8100
	0    1    1    0   
$EndComp
$Comp
L D_Schottky_Small D30
U 1 1 56E5AB72
P 1650 8100
F 0 "D30" H 1600 8180 50  0000 L CNN
F 1 "1N5817" H 1500 8000 50  0000 L CNN
F 2 "w_smd_diode:do214ac" V 1650 8100 60  0001 C CNN
F 3 "" V 1650 8100 60  0000 C CNN
	1    1650 8100
	0    1    1    0   
$EndComp
Wire Wire Line
	950  7900 1650 7900
Wire Wire Line
	1350 8000 1350 7900
Connection ~ 1350 7900
Wire Wire Line
	1650 7900 1650 8000
Wire Wire Line
	1000 8250 1650 8250
Wire Wire Line
	1650 8250 1650 8200
Wire Wire Line
	1350 8200 1350 8250
Connection ~ 1350 8250
$Comp
L ZENERsmall D23
U 1 1 56E5AB80
P 1350 8750
F 0 "D23" H 1350 8850 40  0000 C CNN
F 1 "4.7V" H 1350 8650 30  0000 C CNN
F 2 "w_smd_diode:sod80" H 1350 8750 60  0001 C CNN
F 3 "" H 1350 8750 60  0000 C CNN
	1    1350 8750
	0    1    1    0   
$EndComp
$Comp
L D_Schottky_Small D31
U 1 1 56E5AB86
P 1650 8750
F 0 "D31" H 1600 8830 50  0000 L CNN
F 1 "1N5817" H 1500 8650 50  0000 L CNN
F 2 "w_smd_diode:do214ac" V 1650 8750 60  0001 C CNN
F 3 "" V 1650 8750 60  0000 C CNN
	1    1650 8750
	0    1    1    0   
$EndComp
Wire Wire Line
	950  8550 1650 8550
Wire Wire Line
	1350 8650 1350 8550
Connection ~ 1350 8550
Wire Wire Line
	1650 8550 1650 8650
Wire Wire Line
	1000 8900 1650 8900
Wire Wire Line
	1650 8900 1650 8850
Wire Wire Line
	1350 8850 1350 8900
Connection ~ 1350 8900
$Comp
L ZENERsmall D24
U 1 1 56E5AB94
P 1350 9450
F 0 "D24" H 1350 9550 40  0000 C CNN
F 1 "4.7V" H 1350 9350 30  0000 C CNN
F 2 "w_smd_diode:sod80" H 1350 9450 60  0001 C CNN
F 3 "" H 1350 9450 60  0000 C CNN
	1    1350 9450
	0    1    1    0   
$EndComp
$Comp
L D_Schottky_Small D32
U 1 1 56E5AB9A
P 1650 9450
F 0 "D32" H 1600 9530 50  0000 L CNN
F 1 "1N5817" H 1500 9350 50  0000 L CNN
F 2 "w_smd_diode:do214ac" V 1650 9450 60  0001 C CNN
F 3 "" V 1650 9450 60  0000 C CNN
	1    1650 9450
	0    1    1    0   
$EndComp
Wire Wire Line
	950  9250 1650 9250
Wire Wire Line
	1350 9350 1350 9250
Connection ~ 1350 9250
Wire Wire Line
	1650 9250 1650 9350
Wire Wire Line
	1000 9600 1650 9600
Wire Wire Line
	1650 9600 1650 9550
Wire Wire Line
	1350 9550 1350 9600
Connection ~ 1350 9600
$Comp
L ZENERsmall D25
U 1 1 56E5ABA8
P 1350 10100
F 0 "D25" H 1350 10200 40  0000 C CNN
F 1 "4.7V" H 1350 10000 30  0000 C CNN
F 2 "w_smd_diode:sod80" H 1350 10100 60  0001 C CNN
F 3 "" H 1350 10100 60  0000 C CNN
	1    1350 10100
	0    1    1    0   
$EndComp
$Comp
L D_Schottky_Small D33
U 1 1 56E5ABAE
P 1650 10100
F 0 "D33" H 1600 10180 50  0000 L CNN
F 1 "1N5817" H 1500 10000 50  0000 L CNN
F 2 "w_smd_diode:do214ac" V 1650 10100 60  0001 C CNN
F 3 "" V 1650 10100 60  0000 C CNN
	1    1650 10100
	0    1    1    0   
$EndComp
Wire Wire Line
	950  9900 1650 9900
Wire Wire Line
	1350 10000 1350 9900
Connection ~ 1350 9900
Wire Wire Line
	1650 9900 1650 10000
Wire Wire Line
	1000 10250 1650 10250
Wire Wire Line
	1650 10250 1650 10200
Wire Wire Line
	1350 10200 1350 10250
Connection ~ 1350 10250
$Comp
L ZENERsmall D26
U 1 1 56E5ABBC
P 1350 10800
F 0 "D26" H 1350 10900 40  0000 C CNN
F 1 "4.7V" H 1350 10700 30  0000 C CNN
F 2 "w_smd_diode:sod80" H 1350 10800 60  0001 C CNN
F 3 "" H 1350 10800 60  0000 C CNN
	1    1350 10800
	0    1    1    0   
$EndComp
$Comp
L D_Schottky_Small D34
U 1 1 56E5ABC2
P 1650 10800
F 0 "D34" H 1600 10880 50  0000 L CNN
F 1 "1N5817" H 1500 10700 50  0000 L CNN
F 2 "w_smd_diode:do214ac" V 1650 10800 60  0001 C CNN
F 3 "" V 1650 10800 60  0000 C CNN
	1    1650 10800
	0    1    1    0   
$EndComp
Wire Wire Line
	950  10600 1650 10600
Wire Wire Line
	1350 10700 1350 10600
Connection ~ 1350 10600
Wire Wire Line
	1650 10600 1650 10700
Wire Wire Line
	1000 10950 1650 10950
Wire Wire Line
	1650 10950 1650 10900
Wire Wire Line
	1350 10900 1350 10950
Connection ~ 1350 10950
$Comp
L GND #PWR037
U 1 1 56E5D09E
P 1000 10250
F 0 "#PWR037" H 1000 10000 50  0001 C CNN
F 1 "GND" H 1000 10100 50  0000 C CNN
F 2 "" H 1000 10250 60  0000 C CNN
F 3 "" H 1000 10250 60  0000 C CNN
	1    1000 10250
	1    0    0    -1  
$EndComp
$Comp
L GND #PWR038
U 1 1 56E5D1DE
P 1000 10950
F 0 "#PWR038" H 1000 10700 50  0001 C CNN
F 1 "GND" H 1000 10800 50  0000 C CNN
F 2 "" H 1000 10950 60  0000 C CNN
F 3 "" H 1000 10950 60  0000 C CNN
	1    1000 10950
	1    0    0    -1  
$EndComp
$Comp
L GND #PWR039
U 1 1 56E5D31E
P 1000 9600
F 0 "#PWR039" H 1000 9350 50  0001 C CNN
F 1 "GND" H 1000 9450 50  0000 C CNN
F 2 "" H 1000 9600 60  0000 C CNN
F 3 "" H 1000 9600 60  0000 C CNN
	1    1000 9600
	1    0    0    -1  
$EndComp
$Comp
L GND #PWR040
U 1 1 56E5D45E
P 1000 8900
F 0 "#PWR040" H 1000 8650 50  0001 C CNN
F 1 "GND" H 1000 8750 50  0000 C CNN
F 2 "" H 1000 8900 60  0000 C CNN
F 3 "" H 1000 8900 60  0000 C CNN
	1    1000 8900
	1    0    0    -1  
$EndComp
$Comp
L GND #PWR041
U 1 1 56E5D59E
P 1000 8250
F 0 "#PWR041" H 1000 8000 50  0001 C CNN
F 1 "GND" H 1000 8100 50  0000 C CNN
F 2 "" H 1000 8250 60  0000 C CNN
F 3 "" H 1000 8250 60  0000 C CNN
	1    1000 8250
	1    0    0    -1  
$EndComp
$Comp
L GND #PWR042
U 1 1 56E5D6DE
P 1000 7550
F 0 "#PWR042" H 1000 7300 50  0001 C CNN
F 1 "GND" H 1000 7400 50  0000 C CNN
F 2 "" H 1000 7550 60  0000 C CNN
F 3 "" H 1000 7550 60  0000 C CNN
	1    1000 7550
	1    0    0    -1  
$EndComp
$Comp
L GND #PWR043
U 1 1 56E5E2FB
P 1000 6900
F 0 "#PWR043" H 1000 6650 50  0001 C CNN
F 1 "GND" H 1000 6750 50  0000 C CNN
F 2 "" H 1000 6900 60  0000 C CNN
F 3 "" H 1000 6900 60  0000 C CNN
	1    1000 6900
	1    0    0    -1  
$EndComp
$Comp
L GND #PWR044
U 1 1 56E5E43B
P 1000 6200
F 0 "#PWR044" H 1000 5950 50  0001 C CNN
F 1 "GND" H 1000 6050 50  0000 C CNN
F 2 "" H 1000 6200 60  0000 C CNN
F 3 "" H 1000 6200 60  0000 C CNN
	1    1000 6200
	1    0    0    -1  
$EndComp
Text Label 950  7200 0    60   ~ 0
Sensor3
Text Label 950  7900 0    60   ~ 0
Sensor4
Text Label 950  8550 0    60   ~ 0
Sensor5
Text Label 950  9250 0    60   ~ 0
Sensor6
Text Label 950  9900 0    60   ~ 0
Sensor7
Text Label 950  10600 0    60   ~ 0
Sensor8
Text Label 2000 3400 0    60   ~ 0
Sensor2
Text Label 2000 3300 0    60   ~ 0
Sensor1
Text Notes 1000 5700 0    60   ~ 0
Input protection
$Comp
L CONN_01X04 P4
U 1 1 56E68314
P 8550 4250
F 0 "P4" H 8550 4500 50  0000 C CNN
F 1 "CONN_01X04" V 8650 4250 50  0000 C CNN
F 2 "Pin_Headers:Pin_Header_Straight_1x04" H 8550 4250 60  0001 C CNN
F 3 "" H 8550 4250 60  0000 C CNN
	1    8550 4250
	-1   0    0    -1  
$EndComp
Wire Wire Line
	8750 4200 8850 4200
Wire Wire Line
	8750 4300 8850 4300
Wire Wire Line
	8750 4400 9050 4400
NoConn ~ 6650 2800
NoConn ~ 6650 2900
$EndSCHEMATC
